%YAML 1.1
%TAG !u! tag:unity3d.com,2011:
--- !u!1 &1754607929274046
GameObject:
  m_ObjectHideFlags: 0
  m_CorrespondingSourceObject: {fileID: 0}
  m_PrefabInstance: {fileID: 0}
  m_PrefabAsset: {fileID: 0}
  serializedVersion: 6
  m_Component:
  - component: {fileID: 4602274753346668}
  - component: {fileID: 114583783412086110}
  - component: {fileID: 114528343399693990}
  - component: {fileID: 114730130117123824}
  m_Layer: 0
  m_Name: Roman Archer Subunit
  m_TagString: Subunit
  m_Icon: {fileID: -1412012063857583412, guid: 0000000000000000d000000000000000, type: 0}
  m_NavMeshLayer: 0
  m_StaticEditorFlags: 0
  m_IsActive: 1
--- !u!4 &4602274753346668
Transform:
  m_ObjectHideFlags: 0
  m_CorrespondingSourceObject: {fileID: 0}
  m_PrefabInstance: {fileID: 0}
  m_PrefabAsset: {fileID: 0}
  m_GameObject: {fileID: 1754607929274046}
  m_LocalRotation: {x: 0, y: 0, z: 0, w: 1}
  m_LocalPosition: {x: 0, y: 0, z: 0}
  m_LocalScale: {x: 1, y: 1, z: 1}
  m_ConstrainProportionsScale: 0
  m_Children: []
  m_Father: {fileID: 0}
  m_RootOrder: 0
  m_LocalEulerAnglesHint: {x: 0, y: 0, z: 0}
--- !u!114 &114583783412086110
MonoBehaviour:
  m_ObjectHideFlags: 0
  m_CorrespondingSourceObject: {fileID: 0}
  m_PrefabInstance: {fileID: 0}
  m_PrefabAsset: {fileID: 0}
  m_GameObject: {fileID: 1754607929274046}
  m_Enabled: 1
  m_EditorHideFlags: 0
  m_Script: {fileID: 11500000, guid: faea2b77c26b38844ac6659b2cf9cbeb, type: 3}
  m_Name: 
  m_EditorClassIdentifier: 
  CurrentGridSquare: {x: 0, y: 0}
  _parentUnit: {fileID: 0}
  _subUnitOrder: 0.7
  _subUnitRandomness: 0
  _healthPoints: 0
  SubUnitPowerLevelMeleeAttack: 0
  SubUnitPowerLevelMeleeDefense: 0
  SubUnitPowerLevelMissileAttack: 0
  SubUnitPowerLevelMissileDefense: 0
  SubUnitPowerLevelPsych: 0
  _isRunning: 0
  _subUnitFormationWidth: 0
  Type: 1
  Role: 1
  _grid: {fileID: 0}
  _markerPrefab: {fileID: 4618570195448132, guid: 1b211300118c350469c3c30814489e81,
    type: 3}
  EntityPrefab: {fileID: 1978603666006984, guid: 99838d180bbafa547b9d1b7a691019a8,
    type: 3}
  SimProjectilePrefab: {fileID: 1818095418613254, guid: 29a63d76caa769f479c8802b58cd545e,
    type: 3}
--- !u!114 &114528343399693990
MonoBehaviour:
  m_ObjectHideFlags: 0
  m_CorrespondingSourceObject: {fileID: 0}
  m_PrefabInstance: {fileID: 0}
  m_PrefabAsset: {fileID: 0}
  m_GameObject: {fileID: 1754607929274046}
  m_Enabled: 1
  m_EditorHideFlags: 0
  m_Script: {fileID: 11500000, guid: abe4e7f5117dbdd4b8d71c5b94eb3a34, type: 3}
  m_Name: 
  m_EditorClassIdentifier: 
--- !u!114 &114730130117123824
MonoBehaviour:
  m_ObjectHideFlags: 0
  m_CorrespondingSourceObject: {fileID: 0}
  m_PrefabInstance: {fileID: 0}
  m_PrefabAsset: {fileID: 0}
  m_GameObject: {fileID: 1754607929274046}
  m_Enabled: 1
  m_EditorHideFlags: 0
  m_Script: {fileID: 11500000, guid: e164da10573f75e488b1c6d82403a2b0, type: 3}
  m_Name: 
  m_EditorClassIdentifier: 
  _name: Default
  _horizontalSpacing: 1.5
  _verticalSpacing: 1.8
  CanUseFormationDuringCharge: 1
  CanUseFormationInCombat: 1
  CanRunWhileInFormation: 1
  MinimumDisciplineToSustainFormation: -1
  AnimationOverride: 
  FrontRowAnimationOverride: 
  _minimumColumns: 1
  _minimumRows: 1
  _overrideFrontRowVerticalSpacing: 0
  _frontRowVerticalSpacing: 1
