# 3ds Max Wavefront OBJ Exporter v0.99 - (c)2007 guruware
# File Created: 01.07.2022 19:56:27

mtllib LowPolyBush4.mtl

#
# object Plant1
#

v  36.1427 46.5309 -19.9752
v  36.8593 47.1134 -14.6552
v  25.5818 45.7221 -10.1987
v  24.1369 44.5476 -20.9262
v  36.1638 47.5033 -19.1240
v  24.1794 46.5082 -19.2099
v  25.1178 47.2711 -12.2425
v  36.6292 47.8816 -15.6688
v  -2.8113 5.1222 -7.4546
v  5.6667 27.7406 -2.5004
v  3.5782 29.5912 -5.4265
v  3.4250 25.9183 -19.1440
v  2.1223 28.4076 -16.2363
v  15.8935 40.2000 -4.4127
v  14.4013 42.6725 -7.7778
v  13.4349 38.2014 -22.6664
v  12.8044 41.3744 -19.6335
v  60.1602 12.3996 26.9012
v  56.6756 12.3996 32.5690
v  44.0249 19.5864 28.7605
v  51.0515 19.5864 17.3316
v  60.0326 13.3242 28.1915
v  50.7942 21.4508 19.9335
v  46.2305 21.4508 27.3565
v  57.7694 13.3242 31.8727
v  -1.9376 1.6966 -7.3724
v  13.0269 17.2050 14.0451
v  14.9375 20.5983 10.9375
v  23.9286 17.2050 -3.6865
v  22.0180 20.5983 -0.5790
v  29.1088 21.5512 25.1145
v  32.1648 25.0979 22.2969
v  41.0652 21.5512 5.6673
v  39.9304 25.0979 9.6661
v  57.6552 12.3996 -45.9594
v  60.9974 12.3996 -40.2065
v  51.6528 19.5864 -30.8671
v  44.9134 19.5864 -42.4677
v  58.7313 13.3242 -45.2361
v  47.0833 21.4508 -41.0091
v  51.4604 21.4508 -33.4746
v  60.9020 13.3242 -41.4996
v  -1.9361 1.6966 -7.4926
v  24.0140 17.2050 -10.5321
v  22.1815 20.5983 -13.6863
v  13.5580 17.2050 -28.5301
v  15.3905 20.5983 -25.3758
v  41.3786 21.5512 -19.4556
v  40.3439 25.0979 -23.4814
v  29.9110 21.5512 -39.1949
v  32.8958 25.0979 -36.3019
v  31.0335 12.3996 -70.3126
v  36.7705 12.3996 -66.9432
v  33.2185 19.5864 -54.2181
v  21.6499 19.5864 -61.0123
v  32.3261 13.3242 -70.2111
v  24.2565 21.4508 -60.8076
v  31.7702 21.4508 -56.3949
v  36.0522 13.3242 -68.0227
v  -1.9780 1.6966 -7.5347
v  19.1326 17.2050 -22.9290
v  15.9871 20.5983 -24.7764
v  1.1843 17.2050 -33.4701
v  4.3298 20.5983 -31.6227
v  29.8747 21.5512 -39.2314
v  26.9959 25.0979 -42.2298
v  10.1898 21.5512 -50.7923
v  14.2108 25.0979 -49.7385
v  27.6132 39.6189 28.2917
v  22.8993 41.9961 29.4246
v  17.2684 42.2229 18.5978
v  26.7738 37.4294 16.3134
v  27.1521 40.8247 28.3533
v  25.8441 39.8609 16.4376
v  19.6704 42.9742 17.9213
v  24.0905 42.3686 29.0891
v  -1.6939 5.0453 -8.2408
v  2.1647 27.9874 -0.0688
v  5.3534 28.7183 -2.4450
v  16.9121 20.5505 -3.6129
v  14.9316 23.8881 -4.7469
v  9.1171 39.0284 9.5874
v  12.9818 40.1922 7.7504
v  25.2913 30.8719 5.7004
v  23.4867 34.8947 5.2258
v  -22.6602 12.3996 60.5525
v  -28.9296 12.3996 58.3252
v  -27.8404 19.5864 45.1586
v  -15.1984 19.5864 49.6499
v  -23.9488 13.3242 60.6965
v  -17.7968 21.4508 49.9403
v  -26.0077 21.4508 47.0232
v  -28.0207 13.3242 59.2499
v  -2.0766 1.6966 -7.3234
v  -19.9062 17.2050 11.7750
v  -16.4688 20.5983 12.9962
v  -0.2924 17.2050 18.7431
v  -3.7298 20.5983 17.5219
v  -27.3821 21.5512 29.8102
v  -23.9896 25.0979 32.2121
v  -5.8707 21.5512 37.4525
v  -10.0181 25.0979 37.1757
v  -41.7007 39.6189 -31.5642
v  -37.6122 41.9961 -34.1695
v  -28.7642 42.2229 -25.7648
v  -37.0086 37.4294 -20.5112
v  -41.2848 40.8247 -31.7725
v  -36.1699 39.8609 -20.9312
v  -30.8152 42.9742 -24.3434
v  -38.6293 42.3686 -33.4646
v  -2.0994 5.0453 -6.5588
v  -8.4076 27.9874 -13.0301
v  -10.6493 28.7183 -9.7455
v  -21.1986 20.5505 -4.8793
v  -18.9570 23.8881 -4.4517
v  -18.1242 39.0284 -19.8979
v  -21.1805 40.1922 -16.9031
v  -32.1527 30.8719 -10.9585
v  -30.2919 34.8947 -11.0970
v  -73.0047 12.3996 -4.1071
v  -73.0047 12.3996 -10.7604
v  -60.2332 19.5864 -14.1418
v  -60.2332 19.5864 -0.7257
v  -73.5718 13.3242 -5.2731
v  -61.3767 21.4508 -3.0769
v  -61.3767 21.4508 -11.7906
v  -73.5718 13.3242 -9.5944
v  -2.1545 1.6966 -7.4337
v  -26.1196 17.2050 -17.8411
v  -26.1197 20.5983 -14.1932
v  -26.1197 17.2050 2.9737
v  -26.1196 20.5983 -0.6742
v  -45.6169 21.5512 -18.8480
v  -46.7446 25.0979 -14.8472
v  -45.6170 21.5512 3.9806
v  -46.7446 25.0979 -0.0202
v  -50.9106 12.3996 -58.9977
v  -45.8727 12.3996 -63.3434
v  -34.9702 19.5864 -55.8815
v  -45.1289 19.5864 -47.1183
v  -50.3981 13.3242 -60.1887
v  -44.0955 21.4508 -49.5200
v  -37.4974 21.4508 -55.2116
v  -47.1260 13.3242 -63.0112
v  -2.1139 1.6966 -7.5224
v  -9.8868 17.2050 -32.4668
v  -12.6490 20.5983 -30.0841
v  -25.6479 17.2050 -18.8711
v  -22.8857 20.5983 -21.2538
v  -21.8596 21.5512 -47.8880
v  -25.6256 25.0979 -46.1286
v  -39.1455 21.5512 -32.9768
v  -36.8526 25.0979 -36.4440
# 153 vertices

vn 0.5588 -0.3186 -0.7657
vn 0.7484 -0.1644 0.6425
vn 0.4622 -0.0792 0.8833
vn 0.2172 -0.2783 -0.9356
vn 0.5375 0.7373 -0.4092
vn -0.2231 0.8793 -0.4208
vn -0.1304 0.9547 0.2676
vn 0.6045 0.7917 0.0880
vn -0.2766 -0.9505 0.1413
vn 0.1972 -0.2198 0.9554
vn -0.7991 0.4478 0.4011
vn -0.0533 -0.4234 -0.9044
vn -0.8886 0.3750 -0.2639
vn 0.3346 -0.0329 0.9418
vn -0.4767 0.8064 0.3500
vn 0.0775 -0.2419 -0.9672
vn -0.5746 0.7268 -0.3763
vn 0.6910 -0.5925 -0.4140
vn -0.0575 -0.5925 0.8035
vn -0.3472 -0.3499 0.8701
vn 0.6197 -0.3499 -0.7025
vn 0.9282 0.2513 0.2744
vn 0.5507 0.8316 -0.0715
vn 0.1848 0.8316 0.5237
vn 0.6639 0.2513 0.7044
vn -0.6945 -0.5791 -0.4270
vn -0.6165 -0.2978 0.7289
vn -0.5326 0.8435 0.0687
vn 0.3721 -0.2978 -0.8791
vn -0.1791 0.8435 -0.5063
vn -0.4402 -0.2351 0.8666
vn -0.1431 0.9277 0.3447
vn 0.5746 -0.2351 -0.7839
vn 0.2430 0.9277 -0.2833
vn -0.0375 -0.5925 -0.8047
vn 0.6805 -0.5925 0.4311
vn 0.6020 -0.3499 0.7178
vn -0.3254 -0.3499 -0.8785
vn 0.6812 0.2513 -0.6876
vn 0.1978 0.8316 -0.5189
vn 0.5487 0.8316 0.0852
vn 0.9347 0.2513 -0.2512
vn -0.7049 -0.5791 0.4095
vn 0.3501 -0.2978 0.8881
vn -0.1917 0.8435 0.5017
vn -0.5981 -0.2978 -0.7440
vn -0.5308 0.8435 -0.0820
vn 0.5549 -0.2351 0.7980
vn 0.2359 0.9277 0.2892
vn -0.4184 -0.2351 -0.8773
vn -0.1344 0.9277 -0.3482
vn -0.4279 -0.5925 -0.6825
vn 0.8045 -0.5925 0.0413
vn 0.8769 -0.3499 0.3295
vn -0.7149 -0.3499 -0.6054
vn 0.2556 0.2513 -0.9335
vn -0.0826 0.8316 -0.5491
vn 0.5198 0.8316 -0.1953
vn 0.6908 0.2513 -0.6780
vn -0.4128 -0.5791 0.7030
vn 0.7412 -0.2978 0.6016
vn 0.0795 0.8435 0.5311
vn -0.8865 -0.2978 -0.3543
vn -0.5026 0.8435 0.1893
vn 0.8753 -0.2351 0.4226
vn 0.3475 0.9277 0.1361
vn -0.7954 -0.2351 -0.5586
vn -0.2881 0.9277 -0.2373
vn 0.6559 -0.5625 0.5034
vn -0.5919 0.0667 0.8032
vn -0.8129 0.2295 0.5353
vn 0.7987 -0.5832 0.1479
vn 0.6824 0.5515 0.4797
vn 0.6754 0.6809 -0.2832
vn 0.0655 0.9885 -0.1367
vn 0.2419 0.7737 0.5856
vn -0.4821 -0.8439 -0.2354
vn -0.9518 0.1223 0.2814
vn -0.2916 0.5585 -0.7766
vn 0.6961 -0.7087 -0.1146
vn 0.2977 0.2613 -0.9182
vn -0.8630 0.2931 0.4116
vn -0.0927 0.8776 -0.4704
vn 0.8285 -0.5599 0.0051
vn 0.5509 0.5530 -0.6251
vn 0.5489 -0.5925 0.5896
vn -0.7979 -0.5925 0.1111
vn -0.9233 -0.3499 -0.1583
vn 0.8162 -0.3499 0.4597
vn -0.0750 0.2513 0.9650
vn 0.1847 0.8316 0.5237
vn -0.4737 0.8316 0.2898
vn -0.5506 0.2513 0.7960
vn 0.2729 -0.5791 -0.7682
vn -0.8413 -0.2978 -0.4511
vn -0.1782 0.8435 -0.5066
vn 0.9374 -0.2978 0.1808
vn 0.4579 0.8435 -0.2807
vn -0.9393 -0.2351 -0.2500
vn -0.3670 0.9277 -0.0681
vn 0.8865 -0.2351 0.3987
vn 0.3277 0.9277 0.1787
vn -0.7840 -0.5625 -0.2625
vn 0.2983 0.0667 -0.9522
vn 0.5945 0.2295 -0.7707
vn -0.8034 -0.5832 0.1201
vn -0.8014 0.5515 -0.2315
vn -0.5465 0.6809 0.4876
vn -0.0174 0.9885 0.1505
vn -0.4193 0.7737 -0.4750
vn 0.5325 -0.8439 0.0657
vn 0.8083 0.1223 -0.5759
vn 0.5284 0.5585 0.6394
vn -0.6210 -0.7087 0.3349
vn 0.0173 0.2613 0.9651
vn 0.6820 0.2931 -0.6700
vn 0.2408 0.8776 0.4146
vn -0.7851 -0.5599 0.2648
vn -0.3174 0.5530 0.7703
vn -0.3718 -0.5925 0.7146
vn -0.3718 -0.5925 -0.7146
vn -0.1599 -0.3499 -0.9230
vn -0.1599 -0.3499 0.9230
vn -0.9344 0.2513 0.2523
vn -0.4317 0.8316 0.3493
vn -0.4317 0.8316 -0.3493
vn -0.9344 0.2513 -0.2523
vn 0.8152 -0.5791 0.0000
vn 0.1434 -0.2978 -0.9438
vn 0.4178 0.8435 -0.3375
vn 0.1434 -0.2978 0.9438
vn 0.4178 0.8435 0.3375
vn -0.0789 -0.2351 -0.9688
vn -0.0587 0.9277 -0.3686
vn -0.0789 -0.2351 0.9688
vn -0.0587 0.9277 0.3686
vn -0.7840 -0.5925 0.1852
vn 0.2983 -0.5925 -0.7483
vn 0.5945 -0.3499 -0.7240
vn -0.8034 -0.3499 0.4818
vn -0.8014 0.2513 -0.5427
vn -0.5465 0.8316 -0.0987
vn -0.0174 0.8316 -0.5550
vn -0.4193 0.2513 -0.8724
vn 0.5325 -0.5791 0.6173
vn 0.8083 -0.2978 -0.5078
vn 0.5284 0.8435 0.0959
vn -0.6210 -0.2978 0.7251
vn 0.0173 0.8435 0.5368
vn 0.6820 -0.2351 -0.6925
vn 0.2408 0.9277 -0.2852
vn -0.7851 -0.2351 0.5730
vn -0.3174 0.9277 0.1963
# 153 vertex normals

vt 0.9457 0.9830 0.0000
vt 0.9468 0.9870 0.0000
vt 0.9303 0.9775 0.0000
vt 0.9282 0.9694 0.0000
vt 0.9458 0.9897 0.0000
vt 0.9282 0.9829 0.0000
vt 0.9296 0.9881 0.0000
vt 0.9464 0.9923 0.0000
vt 0.8887 0.6981 0.0000
vt 0.9011 0.8537 0.0000
vt 0.8981 0.8665 0.0000
vt 0.8978 0.8412 0.0000
vt 0.8959 0.8583 0.0000
vt 0.9161 0.9395 0.0000
vt 0.9139 0.9565 0.0000
vt 0.9125 0.9257 0.0000
vt 0.9116 0.9475 0.0000
vt 0.9809 0.7482 0.0000
vt 0.9758 0.7482 0.0000
vt 0.9573 0.7976 0.0000
vt 0.9676 0.7976 0.0000
vt 0.9807 0.7546 0.0000
vt 0.9672 0.8105 0.0000
vt 0.9605 0.8105 0.0000
vt 0.9774 0.7546 0.0000
vt 0.8900 0.6745 0.0000
vt 0.9119 0.7813 0.0000
vt 0.9147 0.8046 0.0000
vt 0.9278 0.7813 0.0000
vt 0.9251 0.8046 0.0000
vt 0.9354 0.8112 0.0000
vt 0.9399 0.8356 0.0000
vt 0.9529 0.8112 0.0000
vt 0.9513 0.8356 0.0000
vt 0.9772 0.7482 0.0000
vt 0.9821 0.7482 0.0000
vt 0.9684 0.7976 0.0000
vt 0.9586 0.7976 0.0000
vt 0.9788 0.7546 0.0000
vt 0.9617 0.8105 0.0000
vt 0.9682 0.8105 0.0000
vt 0.9820 0.7546 0.0000
vt 0.9280 0.7813 0.0000
vt 0.9253 0.8046 0.0000
vt 0.9127 0.7813 0.0000
vt 0.9153 0.8046 0.0000
vt 0.9534 0.8112 0.0000
vt 0.9519 0.8356 0.0000
vt 0.9366 0.8112 0.0000
vt 0.9410 0.8356 0.0000
vt 0.9382 0.7482 0.0000
vt 0.9466 0.7482 0.0000
vt 0.9414 0.7976 0.0000
vt 0.9245 0.7976 0.0000
vt 0.9401 0.7546 0.0000
vt 0.9283 0.8105 0.0000
vt 0.9393 0.8105 0.0000
vt 0.9456 0.7546 0.0000
vt 0.8899 0.6745 0.0000
vt 0.9208 0.7813 0.0000
vt 0.9162 0.8046 0.0000
vt 0.8945 0.7813 0.0000
vt 0.8992 0.8046 0.0000
vt 0.9323 0.8356 0.0000
vt 0.9077 0.8112 0.0000
vt 0.9136 0.8356 0.0000
vt 0.9332 0.9355 0.0000
vt 0.9263 0.9518 0.0000
vt 0.9181 0.9534 0.0000
vt 0.9320 0.9204 0.0000
vt 0.9326 0.9438 0.0000
vt 0.9307 0.9371 0.0000
vt 0.9216 0.9586 0.0000
vt 0.9281 0.9544 0.0000
vt 0.8903 0.6976 0.0000
vt 0.8960 0.8554 0.0000
vt 0.9007 0.8605 0.0000
vt 0.9176 0.8043 0.0000
vt 0.9147 0.8272 0.0000
vt 0.9062 0.9314 0.0000
vt 0.9118 0.9394 0.0000
vt 0.9298 0.8753 0.0000
vt 0.9272 0.9030 0.0000
vt 0.8596 0.7482 0.0000
vt 0.8505 0.7482 0.0000
vt 0.8521 0.7976 0.0000
vt 0.8706 0.7976 0.0000
vt 0.8578 0.7546 0.0000
vt 0.8668 0.8105 0.0000
vt 0.8547 0.8105 0.0000
vt 0.8518 0.7546 0.0000
vt 0.8898 0.6745 0.0000
vt 0.8637 0.7813 0.0000
vt 0.8687 0.8046 0.0000
vt 0.8924 0.7813 0.0000
vt 0.8874 0.8046 0.0000
vt 0.8527 0.8112 0.0000
vt 0.8577 0.8356 0.0000
vt 0.8842 0.8112 0.0000
vt 0.8781 0.8356 0.0000
vt 0.8318 0.9355 0.0000
vt 0.8377 0.9518 0.0000
vt 0.8507 0.9534 0.0000
vt 0.8386 0.9204 0.0000
vt 0.8324 0.9438 0.0000
vt 0.8399 0.9371 0.0000
vt 0.8477 0.9586 0.0000
vt 0.8363 0.9544 0.0000
vt 0.8897 0.6976 0.0000
vt 0.8805 0.8554 0.0000
vt 0.8772 0.8605 0.0000
vt 0.8618 0.8043 0.0000
vt 0.8651 0.8272 0.0000
vt 0.8663 0.9314 0.0000
vt 0.8618 0.9394 0.0000
vt 0.8457 0.8753 0.0000
vt 0.8485 0.9030 0.0000
vt 0.7859 0.7482 0.0000
vt 0.8046 0.7976 0.0000
vt 0.7851 0.7546 0.0000
vt 0.8030 0.8105 0.0000
vt 0.8897 0.6745 0.0000
vt 0.8546 0.7813 0.0000
vt 0.8546 0.8046 0.0000
vt 0.8260 0.8112 0.0000
vt 0.8244 0.8356 0.0000
vt 0.8183 0.7482 0.0000
vt 0.8257 0.7482 0.0000
vt 0.8416 0.7976 0.0000
vt 0.8267 0.7976 0.0000
vt 0.8190 0.7546 0.0000
vt 0.8283 0.8105 0.0000
vt 0.8379 0.8105 0.0000
vt 0.8238 0.7546 0.0000
vt 0.8783 0.7813 0.0000
vt 0.8743 0.8046 0.0000
vt 0.8553 0.7813 0.0000
vt 0.8593 0.8046 0.0000
vt 0.8608 0.8112 0.0000
vt 0.8553 0.8356 0.0000
vt 0.8355 0.8112 0.0000
vt 0.8389 0.8356 0.0000
# 142 texture coords

o Plant1
g Plant1
usemtl 08___Default
s 2
f 1/1/1 2/2/2 3/3/3 4/4/4 
s 4
f 5/5/5 6/6/6 7/7/7 8/8/8 
s 8
f 1/1/1 4/4/4 6/6/6 5/5/5 
s 32
f 9/9/9 10/10/10 11/11/11 
s 64
f 2/2/2 1/1/1 5/5/5 8/8/8 
s 2
f 10/10/10 9/9/9 12/12/12 
s 4
f 13/13/13 9/9/9 11/11/11 
s 8
f 12/12/12 9/9/9 13/13/13 
s 32
f 10/10/10 14/14/14 15/15/15 11/11/11 
s 2
f 14/14/14 10/10/10 12/12/12 16/16/16 
s 4
f 17/17/17 13/13/13 11/11/11 15/15/15 
s 8
f 16/16/16 12/12/12 13/13/13 17/17/17 
s 32
f 14/14/14 3/3/3 7/7/7 15/15/15 
s 2
f 3/3/3 14/14/14 16/16/16 4/4/4 
s 4
f 6/6/6 17/17/17 15/15/15 7/7/7 
s 8
f 4/4/4 16/16/16 17/17/17 6/6/6 
s 32
f 3/3/3 2/2/2 8/8/8 7/7/7 
s 2
f 18/18/18 19/19/19 20/20/20 21/21/21 
s 4
f 22/22/22 23/23/23 24/24/24 25/25/25 
s 8
f 18/18/18 21/21/21 23/23/23 22/22/22 
s 32
f 26/26/26 27/27/27 28/28/28 
s 64
f 19/19/19 18/18/18 22/22/22 25/25/25 
s 2
f 27/27/27 26/26/26 29/29/29 
s 4
f 30/30/30 26/26/26 28/28/28 
s 8
f 29/29/29 26/26/26 30/30/30 
s 32
f 27/27/27 31/31/31 32/32/32 28/28/28 
s 2
f 31/31/31 27/27/27 29/29/29 33/33/33 
s 4
f 34/34/34 30/30/30 28/28/28 32/32/32 
s 8
f 33/33/33 29/29/29 30/30/30 34/34/34 
s 32
f 31/31/31 20/20/20 24/24/24 32/32/32 
s 2
f 20/20/20 31/31/31 33/33/33 21/21/21 
s 4
f 23/23/23 34/34/34 32/32/32 24/24/24 
s 8
f 21/21/21 33/33/33 34/34/34 23/23/23 
s 32
f 20/20/20 19/19/19 25/25/25 24/24/24 
s 2
f 35/35/35 36/36/36 37/37/37 38/38/38 
s 4
f 39/39/39 40/40/40 41/41/41 42/42/42 
s 8
f 35/35/35 38/38/38 40/40/40 39/39/39 
s 32
f 43/26/43 44/43/44 45/44/45 
s 64
f 36/36/36 35/35/35 39/39/39 42/42/42 
s 2
f 44/43/44 43/26/43 46/45/46 
s 4
f 47/46/47 43/26/43 45/44/45 
s 8
f 46/45/46 43/26/43 47/46/47 
s 32
f 44/43/44 48/47/48 49/48/49 45/44/45 
s 2
f 48/47/48 44/43/44 46/45/46 50/49/50 
s 4
f 51/50/51 47/46/47 45/44/45 49/48/49 
s 8
f 50/49/50 46/45/46 47/46/47 51/50/51 
s 32
f 48/47/48 37/37/37 41/41/41 49/48/49 
s 2
f 37/37/37 48/47/48 50/49/50 38/38/38 
s 4
f 40/40/40 51/50/51 49/48/49 41/41/41 
s 8
f 38/38/38 50/49/50 51/50/51 40/40/40 
s 32
f 37/37/37 36/36/36 42/42/42 41/41/41 
s 2
f 52/51/52 53/52/53 54/53/54 55/54/55 
s 4
f 56/55/56 57/56/57 58/57/58 59/58/59 
s 8
f 52/51/52 55/54/55 57/56/57 56/55/56 
s 32
f 60/59/60 61/60/61 62/61/62 
s 64
f 53/52/53 52/51/52 56/55/56 59/58/59 
s 2
f 61/60/61 60/59/60 63/62/63 
s 4
f 64/63/64 60/59/60 62/61/62 
s 8
f 63/62/63 60/59/60 64/63/64 
s 32
f 61/60/61 65/49/65 66/64/66 62/61/62 
s 2
f 65/49/65 61/60/61 63/62/63 67/65/67 
s 4
f 68/66/68 64/63/64 62/61/62 66/64/66 
s 8
f 67/65/67 63/62/63 64/63/64 68/66/68 
s 32
f 65/49/65 54/53/54 58/57/58 66/64/66 
s 2
f 54/53/54 65/49/65 67/65/67 55/54/55 
s 4
f 57/56/57 68/66/68 66/64/66 58/57/58 
s 8
f 55/54/55 67/65/67 68/66/68 57/56/57 
s 32
f 54/53/54 53/52/53 59/58/59 58/57/58 
s 2
f 69/67/69 70/68/70 71/69/71 72/70/72 
s 4
f 73/71/73 74/72/74 75/73/75 76/74/76 
s 8
f 69/67/69 72/70/72 74/72/74 73/71/73 
s 32
f 77/75/77 78/76/78 79/77/79 
s 64
f 70/68/70 69/67/69 73/71/73 76/74/76 
s 2
f 78/76/78 77/75/77 80/78/80 
s 4
f 81/79/81 77/75/77 79/77/79 
s 8
f 80/78/80 77/75/77 81/79/81 
s 32
f 78/76/78 82/80/82 83/81/83 79/77/79 
s 2
f 82/80/82 78/76/78 80/78/80 84/82/84 
s 4
f 85/83/85 81/79/81 79/77/79 83/81/83 
s 8
f 84/82/84 80/78/80 81/79/81 85/83/85 
s 32
f 82/80/82 71/69/71 75/73/75 83/81/83 
s 2
f 71/69/71 82/80/82 84/82/84 72/70/72 
s 4
f 74/72/74 85/83/85 83/81/83 75/73/75 
s 8
f 72/70/72 84/82/84 85/83/85 74/72/74 
s 32
f 71/69/71 70/68/70 76/74/76 75/73/75 
s 2
f 86/84/86 87/85/87 88/86/88 89/87/89 
s 4
f 90/88/90 91/89/91 92/90/92 93/91/93 
s 8
f 86/84/86 89/87/89 91/89/91 90/88/90 
s 32
f 94/92/94 95/93/95 96/94/96 
s 64
f 87/85/87 86/84/86 90/88/90 93/91/93 
s 2
f 95/93/95 94/92/94 97/95/97 
s 4
f 98/96/98 94/92/94 96/94/96 
s 8
f 97/95/97 94/92/94 98/96/98 
s 32
f 95/93/95 99/97/99 100/98/100 96/94/96 
s 2
f 99/97/99 95/93/95 97/95/97 101/99/101 
s 4
f 102/100/102 98/96/98 96/94/96 100/98/100 
s 8
f 101/99/101 97/95/97 98/96/98 102/100/102 
s 32
f 99/97/99 88/86/88 92/90/92 100/98/100 
s 2
f 88/86/88 99/97/99 101/99/101 89/87/89 
s 4
f 91/89/91 102/100/102 100/98/100 92/90/92 
s 8
f 89/87/89 101/99/101 102/100/102 91/89/91 
s 32
f 88/86/88 87/85/87 93/91/93 92/90/92 
s 2
f 103/101/103 104/102/104 105/103/105 106/104/106 
s 4
f 107/105/107 108/106/108 109/107/109 110/108/110 
s 8
f 103/101/103 106/104/106 108/106/108 107/105/107 
s 32
f 111/109/111 112/110/112 113/111/113 
s 64
f 104/102/104 103/101/103 107/105/107 110/108/110 
s 2
f 112/110/112 111/109/111 114/112/114 
s 4
f 115/113/115 111/109/111 113/111/113 
s 8
f 114/112/114 111/109/111 115/113/115 
s 32
f 112/110/112 116/114/116 117/115/117 113/111/113 
s 2
f 116/114/116 112/110/112 114/112/114 118/116/118 
s 4
f 119/117/119 115/113/115 113/111/113 117/115/117 
s 8
f 118/116/118 114/112/114 115/113/115 119/117/119 
s 32
f 116/114/116 105/103/105 109/107/109 117/115/117 
s 2
f 105/103/105 116/114/116 118/116/118 106/104/106 
s 4
f 108/106/108 119/117/119 117/115/117 109/107/109 
s 8
f 106/104/106 118/116/118 119/117/119 108/106/108 
s 32
f 105/103/105 104/102/104 110/108/110 109/107/109 
s 2
f 120/118/120 121/118/121 122/119/122 123/119/123 
s 4
f 124/120/124 125/121/125 126/121/126 127/120/127 
s 8
f 120/118/120 123/119/123 125/121/125 124/120/124 
s 32
f 128/122/128 129/123/129 130/124/130 
s 64
f 121/118/121 120/118/120 124/120/124 127/120/127 
s 2
f 129/123/129 128/122/128 131/123/131 
s 4
f 132/124/132 128/122/128 130/124/130 
s 8
f 131/123/131 128/122/128 132/124/132 
s 32
f 129/123/129 133/125/133 134/126/134 130/124/130 
s 2
f 133/125/133 129/123/129 131/123/131 135/125/135 
s 4
f 136/126/136 132/124/132 130/124/130 134/126/134 
s 8
f 135/125/135 131/123/131 132/124/132 136/126/136 
s 32
f 133/125/133 122/119/122 126/121/126 134/126/134 
s 2
f 122/119/122 133/125/133 135/125/135 123/119/123 
s 4
f 125/121/125 136/126/136 134/126/134 126/121/126 
s 8
f 123/119/123 135/125/135 136/126/136 125/121/125 
s 32
f 122/119/122 121/118/121 127/120/127 126/121/126 
s 2
f 137/127/137 138/128/138 139/129/139 140/130/140 
s 4
f 141/131/141 142/132/142 143/133/143 144/134/144 
s 8
f 137/127/137 140/130/140 142/132/142 141/131/141 
s 32
f 145/122/145 146/135/146 147/136/147 
s 64
f 138/128/138 137/127/137 141/131/141 144/134/144 
s 2
f 146/135/146 145/122/145 148/137/148 
s 4
f 149/138/149 145/122/145 147/136/147 
s 8
f 148/137/148 145/122/145 149/138/149 
s 32
f 146/135/146 150/139/150 151/140/151 147/136/147 
s 2
f 150/139/150 146/135/146 148/137/148 152/141/152 
s 4
f 153/142/153 149/138/149 147/136/147 151/140/151 
s 8
f 152/141/152 148/137/148 149/138/149 153/142/153 
s 32
f 150/139/150 139/129/139 143/133/143 151/140/151 
s 2
f 139/129/139 150/139/150 152/141/152 140/130/140 
s 4
f 142/132/142 153/142/153 151/140/151 143/133/143 
s 8
f 140/130/140 152/141/152 153/142/153 142/132/142 
s 32
f 139/129/139 138/128/138 144/134/144 143/133/143 
# 117 polygons - 36 triangles

