# 3ds Max Wavefront OBJ Exporter v0.99 - (c)2007 guruware
# File Created: 01.07.2022 20:02:48

mtllib LowPolyBush10.mtl

#
# object Box031
#

v  8.5295 41.5467 9.5685
v  3.7466 39.4234 -1.5003
v  16.7019 31.1182 -0.9453
v  18.1685 35.6779 13.9348
v  8.0454 39.2859 -12.9634
v  17.5149 32.6259 -16.4832
v  28.9270 31.4762 -12.6285
v  31.9368 28.8804 -1.0481
v  29.4112 33.7370 9.9034
v  13.5956 55.0297 8.1068
v  25.0077 53.8800 11.9615
v  25.8208 55.3876 -3.5764
v  10.5858 57.6255 -3.4736
v  34.4772 47.2200 8.4417
v  38.7760 47.0824 -3.0214
v  33.9931 44.9592 -14.0902
v  24.3541 50.8279 -18.4565
v  13.1115 52.7689 -14.4251
v  21.6970 45.2876 18.0178
v  7.4930 50.0505 12.7221
v  35.6832 39.5074 13.1742
v  40.0548 36.2242 -1.9594
v  35.0296 36.4553 -17.2438
v  20.8256 41.2182 -22.5396
v  6.8394 46.9984 -17.6960
v  2.4678 50.2816 -2.5623
v  9.7335 61.9485 30.5365
v  7.2945 58.8944 23.4576
v  16.7019 54.9677 23.4576
v  16.7019 58.8944 33.0141
v  9.7335 61.9485 16.3788
v  16.7019 58.8944 13.9012
v  23.6703 61.9485 16.3788
v  26.1092 58.8944 23.4576
v  23.6703 61.9485 30.5365
v  9.7335 79.4003 30.5365
v  16.7019 82.4543 33.0141
v  16.7019 86.3810 23.4576
v  7.2945 82.4543 23.4576
v  23.6703 79.4003 30.5365
v  26.1092 82.4543 23.4576
v  23.6703 79.4003 16.3788
v  16.7019 82.4543 13.9012
v  9.7335 79.4003 16.3788
v  16.7019 70.6744 36.1996
v  7.2945 70.6744 33.0141
v  26.1092 70.6744 33.0141
v  29.2450 70.6744 23.4576
v  26.1092 70.6744 13.9012
v  16.7019 70.6744 10.7157
v  7.2945 70.6744 13.9012
v  4.1587 70.6744 23.4576
v  -11.2718 25.2436 26.4938
v  -16.7593 19.1264 10.5667
v  4.4068 11.2615 10.5667
v  4.4068 19.1264 32.0683
v  -11.2718 25.2436 -5.3603
v  4.4068 19.1264 -10.9348
v  20.0853 25.2436 -5.3603
v  25.5728 19.1264 10.5667
v  20.0853 25.2436 26.4938
v  -11.2718 60.1989 26.4938
v  4.4068 66.3161 32.0683
v  4.4068 74.1811 10.5667
v  -16.7593 66.3161 10.5667
v  20.0853 60.1989 26.4938
v  25.5728 66.3161 10.5667
v  20.0853 60.1989 -5.3603
v  4.4068 66.3161 -10.9348
v  -11.2718 60.1989 -5.3603
v  4.4068 42.7213 39.2354
v  -16.7593 42.7213 32.0683
v  25.5728 42.7213 32.0683
v  32.6282 42.7213 10.5667
v  25.5728 42.7213 -10.9348
v  4.4068 42.7213 -18.1020
v  -16.7593 42.7213 -10.9348
v  -23.8146 42.7213 10.5667
v  -19.7873 31.6032 38.7510
v  -24.4245 32.6867 27.4717
v  -9.4553 29.6592 25.5015
v  -8.4544 28.0173 41.0148
v  -21.1956 38.6237 17.2624
v  -10.3557 37.4950 12.0052
v  1.0554 38.7265 15.8377
v  5.6144 32.8256 25.5483
v  2.4637 31.7060 37.3264
v  -19.5639 45.3674 43.2333
v  -8.1529 46.5990 47.0658
v  -9.0532 54.4347 33.5695
v  -24.1229 51.2684 33.5227
v  2.6871 45.4702 41.8086
v  5.9159 51.4072 31.5993
v  1.2787 52.4907 20.3199
v  -10.0541 56.0766 18.0562
v  -20.9722 52.3879 21.7446
v  -7.9868 35.7285 48.8753
v  -23.3231 37.2387 45.0020
v  6.7158 37.3776 43.0787
v  10.7716 42.1395 28.2533
v  4.8145 46.8552 14.0690
v  -10.5218 48.3654 10.1957
v  -25.2243 46.7164 15.9923
v  -29.2802 41.9544 30.8177
v  -9.8458 6.1196 36.8266
v  -13.7477 3.5861 25.5015
v  1.3026 0.3287 25.5015
v  1.3026 3.5861 40.7904
v  -9.8458 6.1196 14.1764
v  1.3026 3.5861 10.2126
v  12.4510 6.1196 14.1764
v  16.3529 3.5861 25.5015
v  12.4510 6.1196 36.8266
v  -9.8458 20.5969 36.8266
v  1.3026 23.1305 40.7904
v  1.3026 26.3879 25.5015
v  -13.7477 23.1305 25.5015
v  12.4510 20.5969 36.8266
v  16.3529 23.1305 25.5015
v  12.4510 20.5969 14.1764
v  1.3026 23.1305 10.2126
v  -9.8458 20.5969 14.1764
v  1.3026 13.3583 45.8867
v  -13.7477 13.3583 40.7904
v  16.3529 13.3583 40.7904
v  21.3697 13.3583 25.5015
v  16.3529 13.3583 10.2126
v  1.3026 13.3583 5.1163
v  -13.7477 13.3583 10.2126
v  -18.7645 13.3583 25.5015
v  11.3185 3.7536 33.2076
v  6.0289 2.1114 21.3949
v  26.4317 0.0000 21.3949
v  26.4317 2.1114 37.3420
v  11.3185 3.7536 9.5822
v  26.4317 2.1114 5.4477
v  41.5449 3.7536 9.5822
v  46.8345 2.1114 21.3949
v  41.5449 3.7536 33.2076
v  11.3185 13.1376 33.2076
v  26.4317 14.7798 37.3420
v  26.4317 16.8912 21.3949
v  6.0289 14.7798 21.3949
v  41.5449 13.1376 33.2076
v  46.8345 14.7798 21.3949
v  41.5449 13.1376 9.5822
v  26.4317 14.7798 5.4477
v  11.3185 13.1376 9.5822
v  26.4317 8.4456 42.6577
v  6.0289 8.4456 37.3420
v  46.8345 8.4456 37.3420
v  53.6355 8.4456 21.3949
v  46.8345 8.4456 5.4477
v  26.4317 8.4456 0.1320
v  6.0289 8.4456 5.4478
v  -0.7721 8.4456 21.3949
v  -10.8605 7.8972 12.3723
v  -17.9925 4.4422 -3.5547
v  9.5167 0.0000 -3.5547
v  9.5167 4.4422 17.9468
v  -10.8605 7.8972 -19.4818
v  9.5167 4.4422 -25.0563
v  29.8938 7.8972 -19.4818
v  37.0258 4.4422 -3.5547
v  29.8938 7.8972 12.3723
v  -10.8605 27.6404 12.3723
v  9.5167 31.0954 17.9468
v  9.5167 35.5376 -3.5547
v  -17.9925 31.0954 -3.5547
v  29.8938 27.6404 12.3723
v  37.0258 31.0954 -3.5547
v  29.8938 27.6404 -19.4818
v  9.5167 31.0954 -25.0563
v  -10.8605 27.6404 -19.4818
v  9.5167 17.7688 25.1140
v  -17.9925 17.7688 17.9468
v  37.0258 17.7688 17.9468
v  46.1955 17.7688 -3.5547
v  37.0258 17.7688 -25.0563
v  9.5167 17.7688 -32.2234
v  -17.9925 17.7688 -25.0563
v  -27.1622 17.7688 -3.5547
v  -12.9347 2.9992 -7.9682
v  -20.6333 1.6870 -14.8732
v  -5.7392 0.0000 -21.5007
v  -0.5591 1.6870 -9.8593
v  -20.6090 2.9992 -25.2147
v  -10.9194 1.6870 -33.1421
v  1.4563 2.9992 -35.0332
v  9.1548 1.6870 -28.1282
v  9.1305 2.9992 -17.7866
v  -12.9347 10.4970 -7.9682
v  -0.5591 11.8092 -9.8593
v  -5.7392 13.4962 -21.5007
v  -20.6333 11.8092 -14.8732
v  9.1305 10.4970 -17.7866
v  9.1548 11.8092 -28.1282
v  1.4563 10.4970 -35.0332
v  -10.9194 11.8092 -33.1421
v  -20.6090 10.4970 -25.2147
v  1.1676 6.7481 -5.9788
v  -15.4532 6.7481 -3.2318
v  14.3350 6.7481 -16.4867
v  14.1195 6.7481 -30.3373
v  3.9747 6.7481 -39.7696
v  -12.6461 6.7481 -37.0226
v  -25.8134 6.7481 -26.5146
v  -25.5980 6.7481 -12.6640
# 208 vertices

vn -0.7016 -0.4607 0.5436
vn -0.8635 -0.4996 0.0687
vn -0.3499 -0.9313 0.1010
vn -0.2582 -0.6602 0.7053
vn -0.7221 -0.5565 -0.4110
vn -0.2852 -0.7860 -0.5485
vn 0.1911 -0.8980 -0.3964
vn 0.3216 -0.9428 0.0877
vn 0.2116 -0.8022 0.5583
vn -0.1911 0.8980 0.3964
vn 0.2852 0.7860 0.5485
vn 0.3499 0.9313 -0.1010
vn -0.3216 0.9428 -0.0877
vn 0.7221 0.5565 0.4110
vn 0.8635 0.4996 -0.0687
vn 0.7016 0.4607 -0.5436
vn 0.2582 0.6602 -0.7053
vn -0.2116 0.8022 -0.5583
vn 0.0214 0.0998 0.9948
vn -0.6491 0.3188 0.6907
vn 0.6793 -0.1780 0.7120
vn 0.9365 -0.3503 0.0150
vn 0.6491 -0.3188 -0.6907
vn -0.0214 -0.0998 -0.9948
vn -0.6793 0.1780 -0.7120
vn -0.9365 0.3503 -0.0150
vn -0.6180 -0.4972 0.6090
vn -0.7398 -0.6728 -0.0000
vn 0.0000 -1.0000 -0.0000
vn 0.0000 -0.6755 0.7373
vn -0.6180 -0.4972 -0.6090
vn 0.0000 -0.6755 -0.7373
vn 0.6180 -0.4972 -0.6090
vn 0.7398 -0.6728 -0.0000
vn 0.6180 -0.4972 0.6090
vn -0.6180 0.4972 0.6090
vn 0.0000 0.6755 0.7373
vn -0.0000 1.0000 -0.0000
vn -0.7398 0.6728 0.0000
vn 0.6180 0.4972 0.6090
vn 0.7398 0.6728 0.0000
vn 0.6180 0.4972 -0.6090
vn -0.0000 0.6755 -0.7373
vn -0.6180 0.4972 -0.6090
vn -0.0000 0.0000 1.0000
vn -0.7096 -0.0000 0.7046
vn 0.7096 0.0000 0.7046
vn 1.0000 -0.0000 -0.0000
vn 0.7096 -0.0000 -0.7046
vn 0.0000 0.0000 -1.0000
vn -0.7096 -0.0000 -0.7046
vn -1.0000 -0.0000 -0.0000
vn -0.5994 -0.5402 0.5906
vn -0.7233 -0.6906 0.0000
vn 0.0000 -0.6931 0.7209
vn -0.5994 -0.5402 -0.5906
vn -0.0000 -0.6931 -0.7209
vn 0.5994 -0.5402 -0.5906
vn 0.7233 -0.6906 0.0000
vn 0.5994 -0.5402 0.5906
vn -0.5994 0.5402 0.5906
vn 0.0000 0.6931 0.7209
vn 0.0000 1.0000 0.0000
vn -0.7233 0.6906 -0.0000
vn 0.5994 0.5402 0.5906
vn 0.7233 0.6906 -0.0000
vn 0.5994 0.5402 -0.5906
vn 0.0000 0.6931 -0.7209
vn -0.5994 0.5402 -0.5906
vn -0.0000 -0.0000 1.0000
vn -0.7096 -0.0000 0.7047
vn 0.7096 0.0000 0.7047
vn 1.0000 0.0000 0.0000
vn 0.7096 0.0000 -0.7047
vn 0.0000 -0.0000 -1.0000
vn -0.7096 -0.0000 -0.7047
vn -1.0000 -0.0000 0.0000
vn -0.4680 -0.8445 0.2605
vn -0.6434 -0.7392 -0.1993
vn -0.0154 -0.9507 -0.3096
vn 0.0272 -0.9335 0.3575
vn -0.5276 -0.5470 -0.6499
vn -0.0512 -0.5428 -0.8383
vn 0.4454 -0.5425 -0.7122
vn 0.6195 -0.7333 -0.2802
vn 0.5051 -0.8400 0.1982
vn -0.4454 0.5425 0.7122
vn 0.0512 0.5428 0.8383
vn 0.0154 0.9507 0.3096
vn -0.6195 0.7333 0.2802
vn 0.5276 0.5470 0.6499
vn 0.6434 0.7392 0.1993
vn 0.4680 0.8445 -0.2605
vn -0.0272 0.9335 -0.3575
vn -0.5051 0.8400 -0.1982
vn 0.0622 -0.3100 0.9487
vn -0.6639 -0.2218 0.7142
vn 0.7516 -0.2152 0.6235
vn 0.9979 0.0046 -0.0639
vn 0.6639 0.2218 -0.7142
vn -0.0622 0.3100 -0.9487
vn -0.7516 0.2152 -0.6235
vn -0.9979 -0.0046 0.0639
vn -0.4875 -0.7294 0.4798
vn -0.6327 -0.7744 -0.0000
vn -0.0000 -1.0000 -0.0000
vn -0.0000 -0.7764 0.6302
vn -0.4875 -0.7294 -0.4798
vn -0.0000 -0.7764 -0.6302
vn 0.4875 -0.7294 -0.4798
vn 0.6327 -0.7744 -0.0000
vn 0.4875 -0.7294 0.4798
vn -0.4875 0.7294 0.4798
vn -0.0000 0.7764 0.6302
vn -0.6327 0.7744 -0.0000
vn 0.4875 0.7294 0.4798
vn 0.6327 0.7744 0.0000
vn 0.4875 0.7294 -0.4798
vn 0.0000 0.7764 -0.6302
vn -0.4875 0.7294 -0.4798
vn 0.0000 0.0000 1.0000
vn -0.7092 -0.0000 0.7050
vn 0.7092 -0.0000 0.7050
vn 0.7092 -0.0000 -0.7050
vn -0.0000 -0.0000 -1.0000
vn -0.7092 0.0000 -0.7050
vn -0.2884 -0.8796 0.3784
vn -0.4674 -0.8840 -0.0000
vn -0.0000 -1.0000 0.0000
vn 0.0000 -0.8573 0.5149
vn -0.2884 -0.8796 -0.3784
vn -0.0000 -0.8573 -0.5149
vn 0.2884 -0.8796 -0.3784
vn 0.4674 -0.8840 -0.0000
vn 0.2884 -0.8796 0.3784
vn -0.2884 0.8796 0.3784
vn 0.0000 0.8573 0.5149
vn -0.4674 0.8840 0.0000
vn 0.2884 0.8796 0.3784
vn 0.4674 0.8840 -0.0000
vn 0.2884 0.8796 -0.3784
vn -0.0000 0.8573 -0.5149
vn -0.2884 0.8796 -0.3784
vn -0.6780 0.0000 0.7350
vn 0.6780 -0.0000 0.7350
vn 1.0000 0.0000 -0.0000
vn 0.6780 -0.0000 -0.7350
vn -0.6780 -0.0000 -0.7350
vn -1.0000 0.0000 0.0000
vn -0.3876 -0.7741 0.5006
vn -0.5778 -0.8162 -0.0000
vn 0.0000 -1.0000 0.0000
vn -0.0000 -0.7852 0.6192
vn -0.3876 -0.7741 -0.5006
vn -0.0000 -0.7852 -0.6192
vn 0.3876 -0.7741 -0.5006
vn 0.5778 -0.8162 0.0000
vn 0.3876 -0.7741 0.5006
vn -0.3876 0.7741 0.5006
vn 0.0000 0.7852 0.6192
vn -0.5778 0.8162 0.0000
vn 0.3876 0.7741 0.5006
vn 0.5778 0.8162 -0.0000
vn 0.3876 0.7741 -0.5006
vn 0.0000 0.7852 -0.6192
vn -0.3876 0.7741 -0.5006
vn -0.6746 0.0000 0.7382
vn 0.6746 -0.0000 0.7382
vn 0.6746 -0.0000 -0.7382
vn -0.6746 -0.0000 -0.7382
vn -0.1096 -0.8796 0.4630
vn -0.4271 -0.8840 0.1900
vn 0.2093 -0.8573 0.4704
vn -0.4173 -0.8796 -0.2285
vn -0.2093 -0.8573 -0.4704
vn 0.1096 -0.8796 -0.4630
vn 0.4271 -0.8840 -0.1900
vn 0.4173 -0.8796 0.2285
vn -0.1096 0.8796 0.4630
vn 0.2093 0.8573 0.4704
vn -0.0000 1.0000 0.0000
vn -0.4271 0.8840 0.1900
vn 0.4173 0.8796 0.2285
vn 0.4271 0.8840 -0.1900
vn 0.1096 0.8796 -0.4630
vn -0.2093 0.8573 -0.4704
vn -0.4173 0.8796 -0.2285
vn 0.4065 0.0000 0.9136
vn -0.3206 0.0000 0.9472
vn 0.9183 -0.0000 0.3959
vn 0.9136 -0.0000 -0.4065
vn 0.3206 0.0000 -0.9472
vn -0.4065 -0.0000 -0.9136
vn -0.9183 -0.0000 -0.3959
vn -0.9136 -0.0000 0.4065
# 195 vertex normals

vt 0.0987 0.8262 0.0000
vt 0.0876 0.8186 0.0000
vt 0.1176 0.7892 0.0000
vt 0.1210 0.8054 0.0000
vt 0.0976 0.8182 0.0000
vt 0.1195 0.7945 0.0000
vt 0.1460 0.7904 0.0000
vt 0.1530 0.7812 0.0000
vt 0.1471 0.7985 0.0000
vt 0.1104 0.8740 0.0000
vt 0.1369 0.8699 0.0000
vt 0.1388 0.8753 0.0000
vt 0.1035 0.8832 0.0000
vt 0.1589 0.8463 0.0000
vt 0.1688 0.8458 0.0000
vt 0.1577 0.8383 0.0000
vt 0.1354 0.8591 0.0000
vt 0.1093 0.8660 0.0000
vt 0.1292 0.8394 0.0000
vt 0.0963 0.8563 0.0000
vt 0.1617 0.8189 0.0000
vt 0.1718 0.8073 0.0000
vt 0.1601 0.8081 0.0000
vt 0.1272 0.8250 0.0000
vt 0.0948 0.8455 0.0000
vt 0.0846 0.8572 0.0000
vt 0.1015 0.8985 0.0000
vt 0.0958 0.8877 0.0000
vt 0.1176 0.8738 0.0000
vt 0.1176 0.8877 0.0000
vt 0.1338 0.8985 0.0000
vt 0.1395 0.8877 0.0000
vt 0.1015 0.9605 0.0000
vt 0.1176 0.9713 0.0000
vt 0.1176 0.9852 0.0000
vt 0.0958 0.9713 0.0000
vt 0.1338 0.9605 0.0000
vt 0.1395 0.9713 0.0000
vt 0.1176 0.9295 0.0000
vt 0.0958 0.9295 0.0000
vt 0.1395 0.9295 0.0000
vt 0.1467 0.9295 0.0000
vt 0.0886 0.9295 0.0000
vt 0.0528 0.7683 0.0000
vt 0.0400 0.7466 0.0000
vt 0.0891 0.7187 0.0000
vt 0.0891 0.7466 0.0000
vt 0.1255 0.7683 0.0000
vt 0.1382 0.7466 0.0000
vt 0.0528 0.8923 0.0000
vt 0.0891 0.9140 0.0000
vt 0.0891 0.9419 0.0000
vt 0.0400 0.9140 0.0000
vt 0.1255 0.8923 0.0000
vt 0.1382 0.9140 0.0000
vt 0.0891 0.8303 0.0000
vt 0.0400 0.8303 0.0000
vt 0.1382 0.8303 0.0000
vt 0.1546 0.8303 0.0000
vt 0.0237 0.8303 0.0000
vt 0.0330 0.7909 0.0000
vt 0.0223 0.7947 0.0000
vt 0.0570 0.7840 0.0000
vt 0.0593 0.7782 0.0000
vt 0.0298 0.8158 0.0000
vt 0.0549 0.8118 0.0000
vt 0.0814 0.8162 0.0000
vt 0.0919 0.7952 0.0000
vt 0.0846 0.7913 0.0000
vt 0.0335 0.8397 0.0000
vt 0.0600 0.8441 0.0000
vt 0.0579 0.8719 0.0000
vt 0.0230 0.8607 0.0000
vt 0.0851 0.8401 0.0000
vt 0.0926 0.8612 0.0000
vt 0.0819 0.8650 0.0000
vt 0.0556 0.8777 0.0000
vt 0.0303 0.8646 0.0000
vt 0.0604 0.8055 0.0000
vt 0.0248 0.8109 0.0000
vt 0.0945 0.8114 0.0000
vt 0.1039 0.8283 0.0000
vt 0.0901 0.8450 0.0000
vt 0.0545 0.8504 0.0000
vt 0.0204 0.8445 0.0000
vt 0.0110 0.8276 0.0000
vt 0.0561 0.7005 0.0000
vt 0.0470 0.6915 0.0000
vt 0.0819 0.6800 0.0000
vt 0.0819 0.6915 0.0000
vt 0.1078 0.7005 0.0000
vt 0.1168 0.6915 0.0000
vt 0.0561 0.7519 0.0000
vt 0.0819 0.7608 0.0000
vt 0.0819 0.7724 0.0000
vt 0.0470 0.7608 0.0000
vt 0.1078 0.7519 0.0000
vt 0.1168 0.7608 0.0000
vt 0.0819 0.7262 0.0000
vt 0.0470 0.7262 0.0000
vt 0.1168 0.7262 0.0000
vt 0.1285 0.7262 0.0000
vt 0.0354 0.7262 0.0000
vt 0.1052 0.6921 0.0000
vt 0.0929 0.6863 0.0000
vt 0.1402 0.6788 0.0000
vt 0.1402 0.6863 0.0000
vt 0.1753 0.6921 0.0000
vt 0.1875 0.6863 0.0000
vt 0.1052 0.7254 0.0000
vt 0.1402 0.7312 0.0000
vt 0.1402 0.7387 0.0000
vt 0.0929 0.7312 0.0000
vt 0.1753 0.7254 0.0000
vt 0.1875 0.7312 0.0000
vt 0.1402 0.7087 0.0000
vt 0.0929 0.7087 0.0000
vt 0.1875 0.7087 0.0000
vt 0.2033 0.7087 0.0000
vt 0.0771 0.7087 0.0000
vt 0.0537 0.7068 0.0000
vt 0.0372 0.6945 0.0000
vt 0.1010 0.6788 0.0000
vt 0.1010 0.6945 0.0000
vt 0.1482 0.7068 0.0000
vt 0.1648 0.6945 0.0000
vt 0.0537 0.7768 0.0000
vt 0.1010 0.7891 0.0000
vt 0.1010 0.8049 0.0000
vt 0.0372 0.7891 0.0000
vt 0.1482 0.7768 0.0000
vt 0.1648 0.7891 0.0000
vt 0.1010 0.7418 0.0000
vt 0.0372 0.7418 0.0000
vt 0.1648 0.7418 0.0000
vt 0.1860 0.7418 0.0000
vt 0.0159 0.7418 0.0000
vt 0.0489 0.6894 0.0000
vt 0.0311 0.6848 0.0000
vt 0.0656 0.6788 0.0000
vt 0.0776 0.6848 0.0000
vt 0.0311 0.6894 0.0000
vt 0.0536 0.6848 0.0000
vt 0.0823 0.6894 0.0000
vt 0.1001 0.6848 0.0000
vt 0.1001 0.6894 0.0000
vt 0.0489 0.7160 0.0000
vt 0.0776 0.7207 0.0000
vt 0.0656 0.7267 0.0000
vt 0.0311 0.7207 0.0000
vt 0.1001 0.7160 0.0000
vt 0.1001 0.7207 0.0000
vt 0.0823 0.7160 0.0000
vt 0.0536 0.7207 0.0000
vt 0.0311 0.7160 0.0000
vt 0.0816 0.7027 0.0000
vt 0.0431 0.7027 0.0000
vt 0.1122 0.7027 0.0000
vt 0.1117 0.7027 0.0000
vt 0.0881 0.7027 0.0000
vt 0.0496 0.7027 0.0000
vt 0.0190 0.7027 0.0000
vt 0.0195 0.7027 0.0000
# 163 texture coords

o Box031
g Box031
usemtl 08___Default
s 2
f 1/1/1 2/2/2 3/3/3 4/4/4 
f 5/5/5 6/6/6 3/3/3 2/2/2 
f 7/7/7 8/8/8 3/3/3 6/6/6 
f 9/9/9 4/4/4 3/3/3 8/8/8 
s 4
f 10/10/10 11/11/11 12/12/12 13/13/13 
f 14/14/14 15/15/15 12/12/12 11/11/11 
f 16/16/16 17/17/17 12/12/12 15/15/15 
f 18/18/18 13/13/13 12/12/12 17/17/17 
s 8
f 1/1/1 4/4/4 19/19/19 20/20/20 
f 9/9/9 21/21/21 19/19/19 4/4/4 
f 14/14/14 11/11/11 19/19/19 21/21/21 
f 10/10/10 20/20/20 19/19/19 11/11/11 
s 16
f 9/9/9 8/8/8 22/22/22 21/21/21 
f 7/7/7 23/23/23 22/22/22 8/8/8 
f 16/16/16 15/15/15 22/22/22 23/23/23 
f 14/14/14 21/21/21 22/22/22 15/15/15 
s 32
f 7/7/7 6/6/6 24/24/24 23/23/23 
f 5/5/5 25/25/25 24/24/24 6/6/6 
f 18/18/18 17/17/17 24/24/24 25/25/25 
f 16/16/16 23/23/23 24/24/24 17/17/17 
s 64
f 5/5/5 2/2/2 26/26/26 25/25/25 
f 1/1/1 20/20/20 26/26/26 2/2/2 
f 10/10/10 13/13/13 26/26/26 20/20/20 
f 18/18/18 25/25/25 26/26/26 13/13/13 
s 2
f 27/27/27 28/28/28 29/29/29 30/30/30 
f 31/27/31 32/30/32 29/29/29 28/28/28 
f 33/31/33 34/32/34 29/29/29 32/30/32 
f 35/31/35 30/30/30 29/29/29 34/32/34 
s 4
f 36/33/36 37/34/37 38/35/38 39/36/39 
f 40/37/40 41/38/41 38/35/38 37/34/37 
f 42/37/42 43/34/43 38/35/38 41/38/41 
f 44/33/44 39/36/39 38/35/38 43/34/43 
s 8
f 27/27/27 30/30/30 45/39/45 46/40/46 
f 35/31/35 47/41/47 45/39/45 30/30/30 
f 40/37/40 37/34/37 45/39/45 47/41/47 
f 36/33/36 46/40/46 45/39/45 37/34/37 
s 16
f 35/31/35 34/32/34 48/42/48 47/41/47 
f 33/31/33 49/41/49 48/42/48 34/32/34 
f 42/37/42 41/38/41 48/42/48 49/41/49 
f 40/37/40 47/41/47 48/42/48 41/38/41 
s 32
f 33/31/33 32/30/32 50/39/50 49/41/49 
f 31/27/31 51/40/51 50/39/50 32/30/32 
f 44/33/44 43/34/43 50/39/50 51/40/51 
f 42/37/42 49/41/49 50/39/50 43/34/43 
s 64
f 31/27/31 28/28/28 52/43/52 51/40/51 
f 27/27/27 46/40/46 52/43/52 28/28/28 
f 36/33/36 39/36/39 52/43/52 46/40/46 
f 44/33/44 51/40/51 52/43/52 39/36/39 
s 2
f 53/44/53 54/45/54 55/46/29 56/47/55 
f 57/44/56 58/47/57 55/46/29 54/45/54 
f 59/48/58 60/49/59 55/46/29 58/47/57 
f 61/48/60 56/47/55 55/46/29 60/49/59 
s 4
f 62/50/61 63/51/62 64/52/63 65/53/64 
f 66/54/65 67/55/66 64/52/63 63/51/62 
f 68/54/67 69/51/68 64/52/63 67/55/66 
f 70/50/69 65/53/64 64/52/63 69/51/68 
s 8
f 53/44/53 56/47/55 71/56/70 72/57/71 
f 61/48/60 73/58/72 71/56/70 56/47/55 
f 66/54/65 63/51/62 71/56/70 73/58/72 
f 62/50/61 72/57/71 71/56/70 63/51/62 
s 16
f 61/48/60 60/49/59 74/59/73 73/58/72 
f 59/48/58 75/58/74 74/59/73 60/49/59 
f 68/54/67 67/55/66 74/59/73 75/58/74 
f 66/54/65 73/58/72 74/59/73 67/55/66 
s 32
f 59/48/58 58/47/57 76/56/75 75/58/74 
f 57/44/56 77/57/76 76/56/75 58/47/57 
f 70/50/69 69/51/68 76/56/75 77/57/76 
f 68/54/67 75/58/74 76/56/75 69/51/68 
s 64
f 57/44/56 54/45/54 78/60/77 77/57/76 
f 53/44/53 72/57/71 78/60/77 54/45/54 
f 62/50/61 65/53/64 78/60/77 72/57/71 
f 70/50/69 77/57/76 78/60/77 65/53/64 
s 2
f 79/61/78 80/62/79 81/63/80 82/64/81 
f 83/65/82 84/66/83 81/63/80 80/62/79 
f 85/67/84 86/68/85 81/63/80 84/66/83 
f 87/69/86 82/64/81 81/63/80 86/68/85 
s 4
f 88/70/87 89/71/88 90/72/89 91/73/90 
f 92/74/91 93/75/92 90/72/89 89/71/88 
f 94/76/93 95/77/94 90/72/89 93/75/92 
f 96/78/95 91/73/90 90/72/89 95/77/94 
s 8
f 79/61/78 82/64/81 97/79/96 98/80/97 
f 87/69/86 99/81/98 97/79/96 82/64/81 
f 92/74/91 89/71/88 97/79/96 99/81/98 
f 88/70/87 98/80/97 97/79/96 89/71/88 
s 16
f 87/69/86 86/68/85 100/82/99 99/81/98 
f 85/67/84 101/83/100 100/82/99 86/68/85 
f 94/76/93 93/75/92 100/82/99 101/83/100 
f 92/74/91 99/81/98 100/82/99 93/75/92 
s 32
f 85/67/84 84/66/83 102/84/101 101/83/100 
f 83/65/82 103/85/102 102/84/101 84/66/83 
f 96/78/95 95/77/94 102/84/101 103/85/102 
f 94/76/93 101/83/100 102/84/101 95/77/94 
s 64
f 83/65/82 80/62/79 104/86/103 103/85/102 
f 79/61/78 98/80/97 104/86/103 80/62/79 
f 88/70/87 91/73/90 104/86/103 98/80/97 
f 96/78/95 103/85/102 104/86/103 91/73/90 
s 2
f 105/87/104 106/88/105 107/89/106 108/90/107 
f 109/87/108 110/90/109 107/89/106 106/88/105 
f 111/91/110 112/92/111 107/89/106 110/90/109 
f 113/91/112 108/90/107 107/89/106 112/92/111 
s 4
f 114/93/113 115/94/114 116/95/63 117/96/115 
f 118/97/116 119/98/117 116/95/63 115/94/114 
f 120/97/118 121/94/119 116/95/63 119/98/117 
f 122/93/120 117/96/115 116/95/63 121/94/119 
s 8
f 105/87/104 108/90/107 123/99/121 124/100/122 
f 113/91/112 125/101/123 123/99/121 108/90/107 
f 118/97/116 115/94/114 123/99/121 125/101/123 
f 114/93/113 124/100/122 123/99/121 115/94/114 
s 16
f 113/91/112 112/92/111 126/102/73 125/101/123 
f 111/91/110 127/101/124 126/102/73 112/92/111 
f 120/97/118 119/98/117 126/102/73 127/101/124 
f 118/97/116 125/101/123 126/102/73 119/98/117 
s 32
f 111/91/110 110/90/109 128/99/125 127/101/124 
f 109/87/108 129/100/126 128/99/125 110/90/109 
f 122/93/120 121/94/119 128/99/125 129/100/126 
f 120/97/118 127/101/124 128/99/125 121/94/119 
s 64
f 109/87/108 106/88/105 130/103/52 129/100/126 
f 105/87/104 124/100/122 130/103/52 106/88/105 
f 114/93/113 117/96/115 130/103/52 124/100/122 
f 122/93/120 129/100/126 130/103/52 117/96/115 
s 2
f 131/104/127 132/105/128 133/106/129 134/107/130 
f 135/104/131 136/107/132 133/106/129 132/105/128 
f 137/108/133 138/109/134 133/106/129 136/107/132 
f 139/108/135 134/107/130 133/106/129 138/109/134 
s 4
f 140/110/136 141/111/137 142/112/63 143/113/138 
f 144/114/139 145/115/140 142/112/63 141/111/137 
f 146/114/141 147/111/142 142/112/63 145/115/140 
f 148/110/143 143/113/138 142/112/63 147/111/142 
s 8
f 131/104/127 134/107/130 149/116/45 150/117/144 
f 139/108/135 151/118/145 149/116/45 134/107/130 
f 144/114/139 141/111/137 149/116/45 151/118/145 
f 140/110/136 150/117/144 149/116/45 141/111/137 
s 16
f 139/108/135 138/109/134 152/119/146 151/118/145 
f 137/108/133 153/118/147 152/119/146 138/109/134 
f 146/114/141 145/115/140 152/119/146 153/118/147 
f 144/114/139 151/118/145 152/119/146 145/115/140 
s 32
f 137/108/133 136/107/132 154/116/50 153/118/147 
f 135/104/131 155/117/148 154/116/50 136/107/132 
f 148/110/143 147/111/142 154/116/50 155/117/148 
f 146/114/141 153/118/147 154/116/50 147/111/142 
s 64
f 135/104/131 132/105/128 156/120/149 155/117/148 
f 131/104/127 150/117/144 156/120/149 132/105/128 
f 140/110/136 143/113/138 156/120/149 150/117/144 
f 148/110/143 155/117/148 156/120/149 143/113/138 
s 2
f 157/121/150 158/122/151 159/123/152 160/124/153 
f 161/121/154 162/124/155 159/123/152 158/122/151 
f 163/125/156 164/126/157 159/123/152 162/124/155 
f 165/125/158 160/124/153 159/123/152 164/126/157 
s 4
f 166/127/159 167/128/160 168/129/38 169/130/161 
f 170/131/162 171/132/163 168/129/38 167/128/160 
f 172/131/164 173/128/165 168/129/38 171/132/163 
f 174/127/166 169/130/161 168/129/38 173/128/165 
s 8
f 157/121/150 160/124/153 175/133/70 176/134/167 
f 165/125/158 177/135/168 175/133/70 160/124/153 
f 170/131/162 167/128/160 175/133/70 177/135/168 
f 166/127/159 176/134/167 175/133/70 167/128/160 
s 16
f 165/125/158 164/126/157 178/136/146 177/135/168 
f 163/125/156 179/135/169 178/136/146 164/126/157 
f 172/131/164 171/132/163 178/136/146 179/135/169 
f 170/131/162 177/135/168 178/136/146 171/132/163 
s 32
f 163/125/156 162/124/155 180/133/75 179/135/169 
f 161/121/154 181/134/170 180/133/75 162/124/155 
f 174/127/166 173/128/165 180/133/75 181/134/170 
f 172/131/164 179/135/169 180/133/75 173/128/165 
s 64
f 161/121/154 158/122/151 182/137/77 181/134/170 
f 157/121/150 176/134/167 182/137/77 158/122/151 
f 166/127/159 169/130/161 182/137/77 176/134/167 
f 174/127/166 181/134/170 182/137/77 169/130/161 
s 2
f 183/138/171 184/139/172 185/140/29 186/141/173 
f 187/142/174 188/143/175 185/140/29 184/139/172 
f 189/144/176 190/145/177 185/140/29 188/143/175 
f 191/146/178 186/141/173 185/140/29 190/145/177 
s 4
f 192/147/179 193/148/180 194/149/181 195/150/182 
f 196/151/183 197/152/184 194/149/181 193/148/180 
f 198/153/185 199/154/186 194/149/181 197/152/184 
f 200/155/187 195/150/182 194/149/181 199/154/186 
s 8
f 183/138/171 186/141/173 201/156/188 202/157/189 
f 191/146/178 203/158/190 201/156/188 186/141/173 
f 196/151/183 193/148/180 201/156/188 203/158/190 
f 192/147/179 202/157/189 201/156/188 193/148/180 
s 16
f 191/146/178 190/145/177 204/159/191 203/158/190 
f 189/144/176 205/160/192 204/159/191 190/145/177 
f 198/153/185 197/152/184 204/159/191 205/160/192 
f 196/151/183 203/158/190 204/159/191 197/152/184 
s 32
f 189/144/176 188/143/175 206/161/193 205/160/192 
f 187/142/174 207/162/194 206/161/193 188/143/175 
f 200/155/187 199/154/186 206/161/193 207/162/194 
f 198/153/185 205/160/192 206/161/193 199/154/186 
s 64
f 187/142/174 184/139/172 208/163/195 207/162/194 
f 183/138/171 202/157/189 208/163/195 184/139/172 
f 192/147/179 195/150/182 208/163/195 202/157/189 
f 200/155/187 207/162/194 208/163/195 195/150/182 
# 192 polygons

