# 3ds Max Wavefront OBJ Exporter v0.99 - (c)2007 guruware
# File Created: 01.07.2022 19:55:56

mtllib LowPolyBush3.mtl

#
# object Box038
#

v  14.0246 7.3260 -16.4479
v  14.0246 7.3260 -35.9972
v  26.1434 7.3260 -35.9972
v  26.1434 7.3260 -16.4479
v  12.6657 122.5226 -12.2634
v  18.3869 122.5226 -12.2634
v  18.3869 122.5226 -21.4926
v  12.6657 122.5226 -21.4926
v  36.4439 32.9596 1.3210
v  3.0948 32.9596 1.3210
v  36.4439 32.9596 -52.4759
v  3.0948 32.9596 -52.4760
v  -4.4674 -0.0000 15.3013
v  -4.4674 -0.0000 -14.1227
v  13.7727 -0.0000 -14.1227
v  13.7727 -0.0000 15.3013
v  4.6601 173.1627 3.1933
v  8.4739 173.1627 3.1933
v  8.4739 173.1627 -2.9588
v  4.6601 173.1626 -2.9588
v  29.5679 38.5323 40.6049
v  -20.0730 38.5323 40.6049
v  29.5679 38.5323 -39.4731
v  -20.0730 38.5323 -39.4731
v  -13.0274 58.3473 -19.5363
v  -13.0274 58.3473 -28.7223
v  -7.3329 58.3473 -28.7223
v  -7.3329 58.3473 -19.5363
v  -7.0151 117.1864 -15.2081
v  -3.9540 117.1863 -15.2081
v  -3.9540 117.1863 -20.1462
v  -7.0151 117.1864 -20.1462
v  -1.7287 71.4402 -10.6806
v  -17.0865 71.4402 -10.6806
v  -1.7287 71.4402 -35.4549
v  -17.0865 71.4402 -35.4549
v  20.1558 67.9514 7.5328
v  20.1558 67.9514 -1.3639
v  25.6709 67.9514 -1.3639
v  25.6709 67.9514 7.5328
v  16.7223 126.7905 4.3790
v  19.5290 126.7905 4.3790
v  19.5290 126.7905 -0.1486
v  16.7223 126.7905 -0.1486
v  29.4716 81.0443 14.8138
v  14.7249 81.0443 14.8138
v  29.4716 81.0443 -8.9749
v  14.7249 81.0443 -8.9749
v  14.2155 34.6775 37.3516
v  14.2155 34.6775 21.0635
v  24.3126 34.6775 21.0635
v  24.3126 34.6775 37.3516
v  12.2045 133.3653 20.8273
v  16.6003 133.3653 20.8273
v  16.6004 133.3653 13.7361
v  12.2045 133.3653 13.7361
v  32.2188 56.6376 49.6118
v  5.1335 56.6376 49.6118
v  32.2188 56.6376 5.9191
v  5.1335 56.6376 5.9191
v  -10.7274 88.0671 6.8930
v  -10.7274 88.0671 -1.2551
v  -5.6763 88.0671 -1.2551
v  -5.6763 88.0671 6.8930
v  -3.0205 146.9062 3.4309
v  -0.8119 146.9062 3.4309
v  -0.8119 146.9062 -0.1320
v  -3.0205 146.9062 -0.1320
v  -0.4666 101.1600 13.2704
v  -13.6843 101.1600 13.2704
v  -0.4666 101.1600 -8.0517
v  -13.6843 101.1600 -8.0516
v  -13.0222 12.1248 29.6406
v  -13.0222 12.1248 12.9302
v  -2.6633 12.1248 12.9302
v  -2.6633 12.1248 29.6406
v  -6.1355 110.8126 19.4370
v  -0.7364 110.8126 19.4370
v  -0.7364 110.8126 10.7275
v  -6.1355 110.8126 10.7275
v  6.7843 34.0849 43.7677
v  -21.7327 34.0849 43.7677
v  6.7843 34.0849 -2.2345
v  -21.7327 34.0849 -2.2345
v  5.4873 108.4443 15.1386
v  5.4873 108.4443 9.0368
v  9.2698 108.4443 9.0368
v  9.2698 108.4443 15.1386
v  6.5808 158.3579 7.9699
v  8.1323 158.3578 7.9699
v  8.1323 158.3579 5.4671
v  6.5808 158.3578 5.4671
v  12.2624 119.5511 18.9519
v  2.4863 119.5511 18.9519
v  12.2624 119.5511 3.1816
v  2.4863 119.5511 3.1816
# 96 vertices

vn -0.4806 -0.7798 0.4011
vn -0.4790 -0.7741 -0.4139
vn 0.4863 -0.7698 -0.4135
vn 0.4879 -0.7754 0.4008
vn -0.5551 0.6317 0.5412
vn 0.5288 0.6511 0.5445
vn 0.5354 0.6880 -0.4900
vn -0.5628 0.6671 -0.4880
vn 0.6885 -0.1576 0.7079
vn -0.6780 -0.1852 0.7114
vn 0.6790 -0.1011 -0.7272
vn -0.6700 -0.1253 -0.7317
vn -0.4858 -0.7719 0.4100
vn -0.4858 -0.7721 -0.4097
vn 0.4844 -0.7730 -0.4098
vn 0.4843 -0.7728 0.4101
vn -0.5381 0.6722 0.5085
vn 0.5458 0.6665 0.5078
vn 0.5456 0.6653 -0.5096
vn -0.5379 0.6710 -0.5104
vn 0.6779 -0.1317 0.7233
vn -0.6806 -0.1248 0.7220
vn 0.6782 -0.1336 -0.7226
vn -0.6809 -0.1267 -0.7213
vn -0.5149 -0.7561 0.4040
vn -0.5093 -0.7361 -0.4459
vn 0.4747 -0.7575 -0.4482
vn 0.4796 -0.7782 0.4054
vn -0.5222 0.6433 0.5599
vn 0.5688 0.6085 0.5534
vn 0.5789 0.6517 -0.4900
vn -0.5296 0.6899 -0.4935
vn 0.6745 -0.2115 0.7074
vn -0.6911 -0.1486 0.7073
vn 0.6728 -0.1173 -0.7305
vn -0.6844 -0.0587 -0.7267
vn -0.4798 -0.7611 0.4366
vn -0.4805 -0.7644 -0.4298
vn 0.5175 -0.7410 -0.4279
vn 0.5166 -0.7378 0.4345
vn -0.5756 0.6323 0.5185
vn 0.5268 0.6697 0.5234
vn 0.5257 0.6627 -0.5334
vn -0.5741 0.6258 -0.5280
vn 0.6876 -0.0904 0.7204
vn -0.6742 -0.1534 0.7224
vn 0.6885 -0.1043 -0.7177
vn -0.6744 -0.1678 -0.7190
vn -0.4802 -0.7612 0.4359
vn -0.4843 -0.7772 -0.4019
vn 0.5003 -0.7673 -0.4012
vn 0.4959 -0.7516 0.4350
vn -0.5683 0.6684 0.4799
vn 0.5359 0.6932 0.4819
vn 0.5268 0.6408 -0.5584
vn -0.5572 0.6184 -0.5542
vn 0.6805 -0.0705 0.7294
vn -0.6719 -0.1031 0.7335
vn 0.6906 -0.1623 -0.7048
vn -0.6789 -0.1996 -0.7066
vn -0.5334 -0.7151 0.4519
vn -0.5346 -0.7195 -0.4434
vn 0.4836 -0.7530 -0.4462
vn 0.4826 -0.7483 0.4550
vn -0.5220 0.6702 0.5276
vn 0.5849 0.6215 0.5211
vn 0.5830 0.6138 -0.5323
vn -0.5207 0.6616 -0.5395
vn 0.6749 -0.1494 0.7226
vn -0.6903 -0.0629 0.7208
vn 0.6747 -0.1676 -0.7188
vn -0.6915 -0.0802 -0.7179
vn -0.4878 -0.7689 0.4133
vn -0.4893 -0.7742 -0.4014
vn 0.4794 -0.7802 -0.4019
vn 0.4779 -0.7748 0.4139
vn -0.5339 0.6833 0.4980
vn 0.5641 0.6603 0.4957
vn 0.5582 0.6332 -0.5362
vn -0.5289 0.6550 -0.5397
vn 0.6707 -0.1354 0.7293
vn -0.6806 -0.1070 0.7248
vn 0.6761 -0.1830 -0.7137
vn -0.6874 -0.1518 -0.7102
vn -0.5154 -0.7014 0.4923
vn -0.5216 -0.7299 -0.4418
vn 0.5218 -0.7297 -0.4418
vn 0.5156 -0.7013 0.4923
vn -0.5606 0.6562 0.5051
vn 0.5604 0.6564 0.5052
vn 0.5517 0.6122 -0.5663
vn -0.5520 0.6120 -0.5663
vn 0.6867 -0.0515 0.7251
vn -0.6866 -0.0518 0.7251
vn 0.6885 -0.1521 -0.7091
vn -0.6885 -0.1525 -0.7091
# 96 vertex normals

vt 0.9103 0.6841 0.0000
vt 0.9533 0.6841 0.0000
vt 0.9055 0.8952 0.0000
vt 0.9258 0.8952 0.0000
vt 0.9897 0.7311 0.0000
vt 0.8717 0.7311 0.0000
vt 0.8449 0.6707 0.0000
vt 0.9095 0.6707 0.0000
vt 0.8772 0.9879 0.0000
vt 0.8907 0.9879 0.0000
vt 0.9654 0.7413 0.0000
vt 0.7896 0.7413 0.0000
vt 0.8146 0.7776 0.0000
vt 0.8347 0.7776 0.0000
vt 0.8359 0.8854 0.0000
vt 0.8467 0.8854 0.0000
vt 0.8546 0.8016 0.0000
vt 0.8002 0.8016 0.0000
vt 0.9321 0.7952 0.0000
vt 0.9516 0.7952 0.0000
vt 0.9199 0.9030 0.0000
vt 0.9298 0.9030 0.0000
vt 0.9650 0.8192 0.0000
vt 0.9128 0.8192 0.0000
vt 0.9110 0.7342 0.0000
vt 0.9468 0.7342 0.0000
vt 0.9039 0.9150 0.0000
vt 0.9195 0.9150 0.0000
vt 0.9748 0.7745 0.0000
vt 0.8789 0.7745 0.0000
vt 0.8227 0.8320 0.0000
vt 0.8406 0.8320 0.0000
vt 0.8500 0.9398 0.0000
vt 0.8578 0.9398 0.0000
vt 0.8590 0.8560 0.0000
vt 0.8122 0.8560 0.0000
vt 0.8146 0.6929 0.0000
vt 0.8513 0.6929 0.0000
vt 0.8390 0.8737 0.0000
vt 0.8581 0.8737 0.0000
vt 0.8847 0.7332 0.0000
vt 0.7837 0.7332 0.0000
vt 0.8801 0.8694 0.0000
vt 0.8935 0.8694 0.0000
vt 0.8840 0.9608 0.0000
vt 0.8895 0.9608 0.0000
vt 0.9041 0.8897 0.0000
vt 0.8695 0.8897 0.0000
# 48 texture coords

o Box038
g Box038
usemtl 08___Default
s 2
f 1/1/1 2/1/2 3/2/3 4/2/4 
s 4
f 5/3/5 6/4/6 7/4/7 8/3/8 
s 8
f 1/1/1 4/2/4 9/5/9 10/6/10 
s 16
f 4/2/4 3/2/3 11/5/11 9/5/9 
s 32
f 3/2/3 2/1/2 12/6/12 11/5/11 
s 64
f 2/1/2 1/1/1 10/6/10 12/6/12 
s 8
f 9/5/9 6/4/6 5/3/5 10/6/10 
s 16
f 11/5/11 7/4/7 6/4/6 9/5/9 
s 32
f 12/6/12 8/3/8 7/4/7 11/5/11 
s 64
f 10/6/10 5/3/5 8/3/8 12/6/12 
s 2
f 13/7/13 14/7/14 15/8/15 16/8/16 
s 4
f 17/9/17 18/10/18 19/10/19 20/9/20 
s 8
f 13/7/13 16/8/16 21/11/21 22/12/22 
s 16
f 16/8/16 15/8/15 23/11/23 21/11/21 
s 32
f 15/8/15 14/7/14 24/12/24 23/11/23 
s 64
f 14/7/14 13/7/13 22/12/22 24/12/24 
s 8
f 21/11/21 18/10/18 17/9/17 22/12/22 
s 16
f 23/11/23 19/10/19 18/10/18 21/11/21 
s 32
f 24/12/24 20/9/20 19/10/19 23/11/23 
s 64
f 22/12/22 17/9/17 20/9/20 24/12/24 
s 2
f 25/13/25 26/13/26 27/14/27 28/14/28 
s 4
f 29/15/29 30/16/30 31/16/31 32/15/32 
s 8
f 25/13/25 28/14/28 33/17/33 34/18/34 
s 16
f 28/14/28 27/14/27 35/17/35 33/17/33 
s 32
f 27/14/27 26/13/26 36/18/36 35/17/35 
s 64
f 26/13/26 25/13/25 34/18/34 36/18/36 
s 8
f 33/17/33 30/16/30 29/15/29 34/18/34 
s 16
f 35/17/35 31/16/31 30/16/30 33/17/33 
s 32
f 36/18/36 32/15/32 31/16/31 35/17/35 
s 64
f 34/18/34 29/15/29 32/15/32 36/18/36 
s 2
f 37/19/37 38/19/38 39/20/39 40/20/40 
s 4
f 41/21/41 42/22/42 43/22/43 44/21/44 
s 8
f 37/19/37 40/20/40 45/23/45 46/24/46 
s 16
f 40/20/40 39/20/39 47/23/47 45/23/45 
s 32
f 39/20/39 38/19/38 48/24/48 47/23/47 
s 64
f 38/19/38 37/19/37 46/24/46 48/24/48 
s 8
f 45/23/45 42/22/42 41/21/41 46/24/46 
s 16
f 47/23/47 43/22/43 42/22/42 45/23/45 
s 32
f 48/24/48 44/21/44 43/22/43 47/23/47 
s 64
f 46/24/46 41/21/41 44/21/44 48/24/48 
s 2
f 49/25/49 50/25/50 51/26/51 52/26/52 
s 4
f 53/27/53 54/28/54 55/28/55 56/27/56 
s 8
f 49/25/49 52/26/52 57/29/57 58/30/58 
s 16
f 52/26/52 51/26/51 59/29/59 57/29/57 
s 32
f 51/26/51 50/25/50 60/30/60 59/29/59 
s 64
f 50/25/50 49/25/49 58/30/58 60/30/60 
s 8
f 57/29/57 54/28/54 53/27/53 58/30/58 
s 16
f 59/29/59 55/28/55 54/28/54 57/29/57 
s 32
f 60/30/60 56/27/56 55/28/55 59/29/59 
s 64
f 58/30/58 53/27/53 56/27/56 60/30/60 
s 2
f 61/31/61 62/31/62 63/32/63 64/32/64 
s 4
f 65/33/65 66/34/66 67/34/67 68/33/68 
s 8
f 61/31/61 64/32/64 69/35/69 70/36/70 
s 16
f 64/32/64 63/32/63 71/35/71 69/35/69 
s 32
f 63/32/63 62/31/62 72/36/72 71/35/71 
s 64
f 62/31/62 61/31/61 70/36/70 72/36/72 
s 8
f 69/35/69 66/34/66 65/33/65 70/36/70 
s 16
f 71/35/71 67/34/67 66/34/66 69/35/69 
s 32
f 72/36/72 68/33/68 67/34/67 71/35/71 
s 64
f 70/36/70 65/33/65 68/33/68 72/36/72 
s 2
f 73/37/73 74/37/74 75/38/75 76/38/76 
s 4
f 77/39/77 78/40/78 79/40/79 80/39/80 
s 8
f 73/37/73 76/38/76 81/41/81 82/42/82 
s 16
f 76/38/76 75/38/75 83/41/83 81/41/81 
s 32
f 75/38/75 74/37/74 84/42/84 83/41/83 
s 64
f 74/37/74 73/37/73 82/42/82 84/42/84 
s 8
f 81/41/81 78/40/78 77/39/77 82/42/82 
s 16
f 83/41/83 79/40/79 78/40/78 81/41/81 
s 32
f 84/42/84 80/39/80 79/40/79 83/41/83 
s 64
f 82/42/82 77/39/77 80/39/80 84/42/84 
s 2
f 85/43/85 86/43/86 87/44/87 88/44/88 
s 4
f 89/45/89 90/46/90 91/46/91 92/45/92 
s 8
f 85/43/85 88/44/88 93/47/93 94/48/94 
s 16
f 88/44/88 87/44/87 95/47/95 93/47/93 
s 32
f 87/44/87 86/43/86 96/48/96 95/47/95 
s 64
f 86/43/86 85/43/85 94/48/94 96/48/96 
s 8
f 93/47/93 90/46/90 89/45/89 94/48/94 
s 16
f 95/47/95 91/46/91 90/46/90 93/47/93 
s 32
f 96/48/96 92/45/92 91/46/91 95/47/95 
s 64
f 94/48/94 89/45/89 92/45/92 96/48/96 
# 80 polygons

