%YAML 1.1
%TAG !u! tag:unity3d.com,2011:
--- !u!114 &11400000
MonoBehaviour:
  m_ObjectHideFlags: 0
  m_CorrespondingSourceObject: {fileID: 0}
  m_PrefabInstance: {fileID: 0}
  m_PrefabAsset: {fileID: 0}
  m_GameObject: {fileID: 0}
  m_Enabled: 1
  m_EditorHideFlags: 0
  m_Script: {fileID: 11500000, guid: 00765c155916f8f4b808d2bdc81dde41, type: 3}
  m_Name: Aggressive
  m_EditorClassIdentifier: 
  ID: 3
  aggressionLevel: 3
  maxMorale: 85
  minMorale: 55
