# 3ds Max Wavefront OBJ Exporter v0.99 - (c)2007 guruware
# File Created: 01.07.2022 19:11:47

mtllib LowPolyRock4.mtl

#
# object Box026
#

v  -78.4770 -0.2712 53.3959
v  -105.9440 -0.9563 -0.0000
v  0.0000 -1.8372 -0.0000
v  0.0000 -0.9563 72.0844
v  -78.4770 -0.2712 -53.3959
v  0.0000 -0.9563 -72.0844
v  78.4770 -0.2712 -53.3959
v  105.9440 -0.9563 -0.0000
v  78.4770 -0.2712 53.3959
v  -50.8996 47.0140 34.6322
v  0.0000 52.8908 46.7534
v  0.0000 60.4466 -0.0000
v  -68.7145 52.8908 -0.0000
v  50.8996 47.0140 34.6322
v  68.7145 52.8908 -0.0000
v  50.8996 47.0140 -34.6322
v  0.0000 52.8908 -46.7534
v  -50.8996 47.0140 -34.6322
v  0.0000 30.2233 62.3379
v  -68.7145 30.2233 46.7534
v  68.7145 30.2233 46.7534
v  91.6193 30.2233 -0.0000
v  68.7145 30.2233 -46.7534
v  0.0000 30.2233 -62.3379
v  -68.7145 30.2233 -46.7534
v  -91.6193 30.2233 -0.0000
# 26 vertices

vn -0.5599 -0.4754 0.6786
vn -0.8918 -0.4525 -0.0000
vn 0.0000 -1.0000 -0.0000
vn 0.0000 -0.5397 0.8418
vn -0.5599 -0.4754 -0.6786
vn 0.0000 -0.5397 -0.8418
vn 0.5599 -0.4754 -0.6786
vn 0.8918 -0.4525 -0.0000
vn 0.5599 -0.4754 0.6786
vn -0.2909 0.8486 0.4420
vn 0.0000 0.8278 0.5611
vn 0.0000 1.0000 -0.0000
vn -0.4892 0.8722 -0.0000
vn 0.2909 0.8486 0.4420
vn 0.4892 0.8722 -0.0000
vn 0.2909 0.8486 -0.4420
vn 0.0000 0.8278 -0.5611
vn -0.2909 0.8486 -0.4420
vn 0.0000 0.4293 0.9032
vn -0.5140 0.5498 0.6584
vn 0.5140 0.5498 0.6584
vn 0.8347 0.5508 -0.0000
vn 0.5140 0.5498 -0.6584
vn 0.0000 0.4293 -0.9032
vn -0.5140 0.5498 -0.6584
vn -0.8347 0.5508 -0.0000
# 26 vertex normals

vt 0.0456 0.0293 0.0000
vt 0.0261 0.0261 0.0000
vt 0.1011 0.0219 0.0000
vt 0.1011 0.0261 0.0000
vt 0.1567 0.0293 0.0000
vt 0.1761 0.0261 0.0000
vt 0.0651 0.2535 0.0000
vt 0.1011 0.2813 0.0000
vt 0.1011 0.3171 0.0000
vt 0.0525 0.2813 0.0000
vt 0.1372 0.2535 0.0000
vt 0.1498 0.2813 0.0000
vt 0.1011 0.1739 0.0000
vt 0.0525 0.1739 0.0000
vt 0.1498 0.1739 0.0000
vt 0.1660 0.1739 0.0000
vt 0.0363 0.1739 0.0000
# 17 texture coords

o Box026
g Box026
usemtl 08___Default
s 2
f 1/1/1 2/2/2 3/3/3 4/4/4 
f 5/1/5 6/4/6 3/3/3 2/2/2 
f 7/5/7 8/6/8 3/3/3 6/4/6 
f 9/5/9 4/4/4 3/3/3 8/6/8 
s 4
f 10/7/10 11/8/11 12/9/12 13/10/13 
f 14/11/14 15/12/15 12/9/12 11/8/11 
f 16/11/16 17/8/17 12/9/12 15/12/15 
f 18/7/18 13/10/13 12/9/12 17/8/17 
s 8
f 1/1/1 4/4/4 19/13/19 20/14/20 
f 9/5/9 21/15/21 19/13/19 4/4/4 
f 14/11/14 11/8/11 19/13/19 21/15/21 
f 10/7/10 20/14/20 19/13/19 11/8/11 
s 16
f 9/5/9 8/6/8 22/16/22 21/15/21 
f 7/5/7 23/15/23 22/16/22 8/6/8 
f 16/11/16 15/12/15 22/16/22 23/15/23 
f 14/11/14 21/15/21 22/16/22 15/12/15 
s 32
f 7/5/7 6/4/6 24/13/24 23/15/23 
f 5/1/5 25/14/25 24/13/24 6/4/6 
f 18/7/18 17/8/17 24/13/24 25/14/25 
f 16/11/16 23/15/23 24/13/24 17/8/17 
s 64
f 5/1/5 2/2/2 26/17/26 25/14/25 
f 1/1/1 20/14/20 26/17/26 2/2/2 
f 10/7/10 13/10/13 26/17/26 20/14/20 
f 18/7/18 25/14/25 26/17/26 13/10/13 
# 24 polygons

