%YAML 1.1
%TAG !u! tag:unity3d.com,2011:
--- !u!114 &11400000
MonoBehaviour:
  m_ObjectHideFlags: 0
  m_CorrespondingSourceObject: {fileID: 0}
  m_PrefabInstance: {fileID: 0}
  m_PrefabAsset: {fileID: 0}
  m_GameObject: {fileID: 0}
  m_Enabled: 1
  m_EditorHideFlags: 0
  m_Script: {fileID: 11500000, guid: 37217d67b7a5eaf4b94e6c6695790e49, type: 3}
  m_Name: GallicSpawnList
  m_EditorClassIdentifier: 
  faction: {fileID: 7253143341024333595, guid: 26bdf719e3d98844a939515a6832c716, type: 3}
  infantryPrefab: {fileID: 545890139505597856, guid: 1d6f5ae19ddc1c544b4a5e8cb2ee19ad,
    type: 3}
  cavalryPrefab: {fileID: 1921630644659547692, guid: f6c6b573f16a64840824509c06ce3eda,
    type: 3}
  skirmisherPrefab: {fileID: 6928317404786937316, guid: 8da5898b10e72124ea1e35a4744b08af,
    type: 3}
