# 3ds Max Wavefront OBJ Exporter v0.99 - (c)2007 guruware
# File Created: 01.07.2022 18:26:50

mtllib LowPolyTree7.mtl

#
# object Box012
#

v  -139.0423 271.3886 14.1272
v  -63.1944 254.5468 -6.3080
v  -63.1049 273.8907 68.0923
v  -125.7633 266.5880 70.0664
v  -131.2676 299.0815 15.5594
v  -132.2292 318.4254 56.5966
v  -91.7263 364.6112 55.3205
v  -69.6603 306.3842 -19.7778
v  -126.3709 287.9529 129.8165
v  -63.0060 295.2556 150.2656
v  -68.5351 347.0929 166.5318
v  -124.9142 325.6603 112.0100
v  3.1000 283.4989 148.1829
v  7.9939 253.3718 65.8523
v  -13.8631 332.2206 52.8674
v  -13.7642 353.5854 135.0407
v  -7.4867 261.0394 -8.0631
v  -14.3990 314.5837 -4.7990
v  -153.8710 353.8175 -97.6255
v  -42.6756 329.9700 -94.9202
v  -72.4263 357.3605 6.1405
v  -158.3000 347.0201 -16.3367
v  -143.8891 393.0298 -92.5592
v  -161.6715 420.4203 -37.2228
v  -106.1620 485.8181 -22.6933
v  -46.0471 403.3702 -115.8063
v  -183.1150 377.2721 64.5512
v  -105.2851 387.6125 117.7596
v  -119.3237 461.0127 137.6268
v  -173.9876 430.6647 40.9576
v  -14.6864 370.9653 141.4736
v  25.0149 328.3062 31.6456
v  0.5499 439.9540 5.2383
v  -32.3090 470.2060 116.8573
v  33.6720 339.1634 -74.9364
v  22.9756 414.9807 -73.2795
v  -37.8874 339.0049 32.2469
v  -25.0609 330.0943 71.7781
v  -64.3713 340.3287 73.8153
v  -67.0902 336.4650 40.7596
v  -38.4362 353.6564 36.3934
v  -60.1458 363.8907 36.9828
v  -58.3883 388.3264 58.3503
v  -18.1164 357.5201 68.0013
v  -98.6782 347.7686 42.0366
v  -107.7887 351.6322 76.0653
v  -116.5316 379.0579 73.5788
v  -89.2304 367.7185 42.3301
v  -104.9202 345.4120 110.9398
v  -61.2862 329.4727 111.3237
v  -55.0096 371.1894 99.4273
v  -98.4269 382.4930 101.6773
v  -22.6436 333.5294 101.1669
v  -24.5532 361.8582 97.6018
v  -94.6055 416.7374 -18.0699
v  -49.4207 401.6357 -72.1445
v  19.0439 418.9810 4.5421
v  -31.9867 412.4328 33.8399
v  -86.7319 441.5691 -19.9756
v  -49.8214 458.9144 22.7624
v  -16.8348 500.3285 3.8240
v  -67.2554 448.1173 -83.2220
v  22.4234 431.5903 95.7216
v  94.6612 438.1385 89.2404
v  104.9501 484.6201 108.4206
v  7.2842 465.4019 76.7249
v  148.4996 427.5965 58.3306
v  76.9484 400.5820 -28.7022
v  46.5789 471.2844 -32.5832
v  122.1962 490.4419 52.1151
v  -4.0510 407.4575 -98.1922
v  -6.8804 455.4697 -91.8187
v  -140.5280 321.0771 -142.9947
v  -66.6858 299.2352 -213.1775
v  -20.5939 324.3221 -128.4091
v  -90.8105 314.8513 -87.4268
v  -130.7788 356.9917 -146.1676
v  -106.5084 382.0786 -98.7869
v  -61.1199 441.9765 -125.2782
v  -82.3837 366.4625 -224.5376
v  -54.5693 342.5591 -18.9303
v  30.3133 352.0299 -34.7847
v  34.0645 419.2571 -12.8219
v  -63.9153 391.4614 -40.1318
v  104.3934 336.7828 -78.0220
v  59.0811 297.7113 -174.9120
v  26.1355 399.9695 -176.2054
v  77.0428 427.6773 -82.5809
v  -4.2584 307.6554 -249.6136
v  -10.1215 377.0964 -241.6195
v  82.1955 325.7516 97.6266
v  65.0607 275.8810 42.4525
v  135.7086 292.9059 35.2111
v  135.7086 316.3738 90.3852
v  83.7881 344.9719 78.2212
v  122.7252 361.9967 70.9798
v  122.7252 381.0486 15.8057
v  52.0774 321.5038 23.0471
v  192.4247 335.1774 82.3873
v  213.7374 311.7094 27.2131
v  229.0172 357.3323 7.8077
v  175.5607 365.3488 62.9818
v  213.7374 270.8887 -21.8405
v  135.7086 242.5034 -13.8425
v  122.7253 317.6641 -33.2479
v  200.7540 336.4677 -41.2459
v  65.0607 255.0163 -6.6011
v  67.9533 302.5059 -26.0065
v  87.5829 302.4314 126.7501
v  79.2822 294.6806 91.5649
v  113.5066 303.5829 92.6019
v  113.5066 300.2221 121.4526
v  88.3544 315.1761 123.1946
v  107.2170 324.0785 124.2316
v  107.2170 345.3339 105.5823
v  72.9925 318.5369 94.3439
v  140.9821 310.0546 122.5980
v  151.3067 313.4153 93.7473
v  158.7088 337.2717 96.5263
v  132.8125 327.4081 121.6699
v  151.3067 308.0048 63.3092
v  113.5066 294.1398 59.8650
v  107.2170 330.4272 69.7307
v  145.0171 340.2596 70.8761
v  79.2822 297.6686 65.9146
v  80.6834 322.3105 69.1415
v  -4.9480 1.3277 27.7623
v  -30.1409 1.3276 3.2015
v  -21.6258 2.4817 -3.9785
v  -5.3877 2.4817 -19.8091
v  0.7576 2.4817 -19.8091
v  16.9956 2.4817 -3.9785
v  0.7576 2.4817 11.8522
v  -38.9141 352.1650 -16.2117
v  -29.5272 360.0425 -8.2693
v  -22.0889 360.6184 -17.6316
v  -31.4757 352.7409 -25.5740
v  -24.7122 25.9196 27.0921
v  19.3083 18.5487 11.4317
v  38.8214 154.1127 7.8838
v  10.5163 148.0837 7.8838
v  19.3083 18.5487 -19.3887
v  38.8214 154.1127 -15.8408
v  -18.1267 18.3324 -19.3771
v  10.5163 148.0837 -15.8408
v  18.5925 272.4062 28.2733
v  4.6656 260.7186 16.4895
v  29.6285 273.2605 14.3828
v  15.7016 261.5730 2.5990
v  -41.6007 -1.0453 48.3044
v  -47.1920 5.9117 48.1148
v  -48.7277 -1.0453 41.3562
v  23.9936 -2.8692 23.2719
v  28.5873 -2.8692 18.7935
v  29.2416 1.6761 23.1530
v  -29.0122 0.9522 -33.0495
v  -33.6059 0.9522 -28.5711
v  -32.6160 5.4363 -32.9273
v  23.9936 -2.8692 -31.2289
v  29.2416 1.6761 -31.1099
v  28.5873 -2.8693 -26.7504
v  116.9594 276.8600 61.7152
v  113.4751 276.1520 57.8746
v  116.8073 271.1260 55.7780
v  120.2917 271.8341 59.6186
v  143.2040 313.2592 24.8723
v  145.5823 312.9987 24.5518
v  145.2445 311.8786 22.9557
v  142.8662 312.1391 23.2763
v  135.1043 283.9851 43.0457
v  132.1308 287.0690 45.1750
v  132.4934 283.4546 40.1678
v  129.5198 286.5384 42.2971
v  146.0305 298.8381 34.9878
v  142.5018 299.2246 35.4634
v  145.5293 297.1763 32.6197
v  142.0006 297.5628 33.0954
v  19.1973 235.3494 17.1019
v  23.7289 237.3035 4.5495
v  31.8354 223.0038 5.2500
v  27.3038 221.0497 17.8024
v  139.1600 313.9214 59.7962
v  142.6873 311.5425 64.3348
v  145.7855 309.4822 60.8471
v  142.2583 311.8611 56.3085
v  84.3035 243.7575 40.0987
v  76.3007 253.0231 38.6520
v  87.6991 245.2218 30.6929
v  79.6963 254.4874 29.2462
v  117.5898 273.8175 66.1282
v  112.3566 277.3470 59.3945
v  122.1865 270.7608 60.9536
v  116.9533 274.2903 54.2199
v  131.3309 291.3816 61.7543
v  130.8194 294.9054 63.8855
v  131.5762 297.5756 59.6522
v  132.0877 294.0518 57.5210
v  175.5021 294.5154 74.3375
v  176.8272 294.3076 72.9722
v  176.8958 295.8658 72.8015
v  175.5706 296.0736 74.1668
v  151.9485 296.5253 59.2113
v  150.6186 294.5475 62.1621
v  151.5652 299.1657 60.8082
v  150.2353 297.1880 63.7591
v  167.0921 293.2653 63.0327
v  165.1260 293.5736 65.0584
v  167.1938 295.5772 62.7796
v  165.2276 295.8855 64.8052
v  -1.7867 314.0636 1.9067
v  -9.3548 318.8291 5.7676
v  -14.3504 319.6078 -4.9858
v  -6.7823 314.8423 -8.8468
v  44.1668 411.5085 -6.5069
v  45.9870 412.6102 -10.4641
v  42.8701 414.3235 -11.4209
v  41.0498 413.2217 -7.4637
v  11.3117 356.4536 -21.6595
v  14.1035 354.2697 -13.4913
v  5.6407 360.0246 -18.7664
v  8.4325 357.8406 -10.5982
v  35.8603 384.6302 -24.1458
v  33.1596 382.9956 -18.2746
v  31.2357 387.1721 -25.5654
v  28.5351 385.5375 -19.6942
v  11.2147 270.8310 18.0947
v  8.2453 260.2031 12.6932
v  22.1442 259.1146 7.1941
v  25.1136 269.7425 12.5956
v  -36.3761 329.2576 -95.4727
v  -33.1257 333.1766 -97.9602
v  -31.3907 329.9352 -100.7998
v  -34.6410 326.0162 -98.3122
v  15.7987 297.0041 -39.4259
v  6.2802 296.6404 -33.4778
v  13.5736 289.0403 -43.4734
v  4.0552 288.6767 -37.5252
v  -2.6732 327.2054 -70.6986
v  -7.4956 321.3910 -67.0079
v  -0.0990 322.3962 -74.9115
v  -4.9214 316.5818 -71.2208
v  25.5771 215.2554 10.2389
v  20.9871 204.6275 14.3529
v  12.4873 203.5390 2.0577
v  17.0773 214.1669 -2.0563
v  -74.2855 273.6821 82.2797
v  -77.4437 277.6010 79.6761
v  -80.6020 274.3596 78.6282
v  -77.4439 270.4406 81.2317
v  -31.4899 241.4285 18.7818
v  -23.5433 241.0648 26.7085
v  -34.9293 233.4647 21.8645
v  -26.9827 233.1011 29.7912
v  -57.7751 271.6298 43.8474
v  -53.0894 265.8154 47.7102
v  -62.4610 266.8206 42.2926
v  -57.7753 261.0063 46.1555
v  -52.1808 408.6193 -158.3017
v  12.2570 394.7997 -156.7339
v  -4.9835 410.6725 -98.1692
v  -54.7474 404.6802 -111.1948
v  -46.3962 431.3429 -155.3658
v  -56.7011 447.2156 -123.2983
v  -24.5334 485.1137 -114.8784
v  10.3032 437.3351 -168.8375
v  -69.1277 422.2112 -64.3202
v  -24.0252 428.2035 -33.4860
v  -32.1606 470.7389 -21.9729
v  -63.8383 453.1523 -77.9927
v  28.4767 418.5565 -19.7437
v  51.4837 393.8355 -83.3890
v  37.3062 458.5354 -98.6921
v  18.2645 476.0665 -34.0088
v  56.5005 400.1273 -145.1533
v  50.3019 444.0634 -144.1932
# 275 vertices

vn -0.5169 -0.1500 0.8428
vn -0.6988 -0.6915 0.1828
vn -0.0000 -0.9815 0.1914
vn -0.0578 -0.7675 0.6384
vn -0.3809 0.6976 0.6069
vn 0.0263 0.4425 0.8964
vn 0.0343 0.9886 0.1469
vn -0.8604 0.5038 0.0763
vn 0.5385 -0.4343 0.7221
vn 0.5309 -0.8172 0.2244
vn 0.9709 0.2029 0.1270
vn 0.3484 0.6426 0.6824
vn 0.5616 -0.6222 -0.5453
vn -0.1419 -0.7953 -0.5893
vn -0.0178 0.5784 -0.8156
vn 0.4340 0.6719 -0.6001
vn -0.7767 -0.3381 -0.5315
vn -0.4024 0.6327 -0.6616
vn -0.7243 -0.1154 0.6798
vn -0.7061 -0.7071 0.0384
vn -0.0299 -0.9656 0.2581
vn -0.2127 -0.7249 0.6551
vn -0.5483 0.7196 0.4260
vn -0.2301 0.5021 0.8336
vn -0.0299 0.9967 0.0752
vn -0.8598 0.4706 -0.1984
vn 0.3302 -0.3617 0.8719
vn 0.4678 -0.7770 0.4213
vn 0.8942 0.2523 0.3698
vn 0.1335 0.7011 0.7005
vn 0.7035 -0.6327 -0.3237
vn 0.0430 -0.8382 -0.5436
vn 0.1929 0.5214 -0.8313
vn 0.5661 0.6483 -0.5091
vn -0.5936 -0.4057 -0.6950
vn -0.2204 0.5693 -0.7920
vn -0.9064 -0.1947 -0.3749
vn -0.3367 -0.8557 -0.3929
vn -0.3008 -0.8822 0.3624
vn -0.7242 -0.6385 0.2604
vn -0.5618 0.6037 -0.5656
vn -0.8316 0.5500 -0.0766
vn -0.0285 0.9498 -0.3116
vn -0.1131 0.1813 -0.9769
vn -0.7028 -0.1116 0.7026
vn -0.2559 -0.5418 0.8006
vn 0.0052 0.5417 0.8405
vn -0.5619 0.8155 0.1385
vn 0.5296 -0.4626 0.7110
vn 0.4755 -0.8723 0.1143
vn 0.8692 0.4113 -0.2746
vn 0.7171 0.6853 0.1267
vn 0.4002 -0.6590 -0.6369
vn 0.6808 0.3513 -0.6427
vn 0.0164 -0.2657 0.9639
vn -0.5718 -0.6983 0.4307
vn -0.0544 -0.9941 0.0938
vn 0.2296 -0.8461 0.4810
vn 0.2578 0.6304 0.7322
vn 0.6559 0.2629 0.7076
vn 0.2679 0.9479 0.1721
vn -0.6229 0.5139 0.5898
vn 0.7760 -0.5733 0.2630
vn 0.4529 -0.8897 -0.0572
vn 0.8923 0.0995 -0.4403
vn 0.7268 0.5274 0.4400
vn 0.0975 -0.5333 -0.8403
vn -0.5839 -0.6645 -0.4664
vn -0.4108 0.7089 -0.5733
vn 0.0278 0.7704 -0.6370
vn -0.9654 -0.2501 -0.0741
vn -0.5676 0.7722 -0.2857
vn -0.0881 -0.2476 0.9648
vn -0.5949 -0.6914 0.4099
vn 0.0041 -0.9979 0.0640
vn 0.1741 -0.8440 0.5072
vn -0.0031 0.6200 0.7846
vn 0.4681 0.3181 0.8244
vn 0.1805 0.9589 0.2188
vn -0.6858 0.5113 0.5180
vn 0.7691 -0.5405 0.3412
vn 0.5038 -0.8533 -0.1344
vn 0.9358 0.1589 -0.3146
vn 0.6733 0.5366 0.5086
vn 0.1977 -0.5583 -0.8058
vn -0.4608 -0.7057 -0.5383
vn -0.3376 0.6823 -0.6485
vn 0.1688 0.7345 -0.6573
vn -0.9588 -0.2439 -0.1456
vn -0.6042 0.7255 -0.3296
vn 0.8737 -0.0924 0.4776
vn 0.3049 -0.7440 0.5945
vn 0.3294 -0.9342 -0.1373
vn 0.7432 -0.6666 -0.0581
vn 0.5145 0.7220 0.4626
vn 0.8225 0.5684 0.0196
vn 0.0029 0.9951 0.0987
vn 0.0347 0.3908 0.9198
vn 0.7567 -0.2485 -0.6047
vn 0.3194 -0.6978 -0.6412
vn 0.0615 0.3465 -0.9360
vn 0.5706 0.7761 -0.2685
vn -0.4709 -0.6152 -0.6323
vn -0.4643 -0.8847 0.0416
vn -0.8886 0.4453 0.1101
vn -0.7052 0.6285 -0.3281
vn -0.4493 -0.5123 0.7319
vn -0.7302 0.4700 0.4960
vn 0.6852 -0.5029 0.5269
vn -0.1363 -0.7887 0.5995
vn -0.1650 -0.9773 -0.1327
vn 0.3213 -0.9466 -0.0248
vn 0.7744 0.3826 0.5039
vn 0.9929 0.0908 0.0775
vn 0.4859 0.8664 0.1148
vn 0.1675 0.3370 0.9265
vn 0.5712 -0.5975 -0.5628
vn -0.0275 -0.7742 -0.6324
vn 0.2795 0.2573 -0.9250
vn 0.8933 0.3911 -0.2217
vn -0.6739 -0.3136 -0.6690
vn -0.8408 -0.5414 -0.0003
vn -0.5596 0.8263 0.0645
vn -0.2841 0.8890 -0.3591
vn -0.6858 -0.2141 0.6956
vn -0.4328 0.7756 0.4594
vn 0.4031 -0.6129 -0.6796
vn -0.7008 -0.1624 0.6946
vn -0.6167 0.2015 0.7609
vn -0.8452 -0.5318 -0.0528
vn -0.8568 -0.4849 0.1757
vn 0.0799 -0.9027 -0.4229
vn -0.9908 0.1350 -0.0054
vn 0.8121 -0.0094 -0.5834
vn -0.0017 0.2871 0.9579
vn 0.7515 0.6344 0.1811
vn -0.0973 0.8249 -0.5568
vn -0.8505 0.4778 0.2199
vn 0.7544 0.4011 0.5196
vn 0.7059 -0.1167 -0.6986
vn 0.6130 -0.2885 -0.7355
vn 0.7190 0.0296 0.6944
vn -0.6306 0.2281 -0.7418
vn -0.6686 0.1703 -0.7239
vn -0.5336 0.6437 0.5486
vn -0.6680 0.4062 0.6235
vn 0.9862 -0.1015 -0.1308
vn 0.1700 -0.1515 0.9737
vn 0.0513 0.1476 -0.9877
vn -0.9785 0.2048 -0.0263
vn 0.6499 -0.7597 -0.0196
vn 0.7636 0.3162 0.5629
vn -0.2151 -0.3562 0.9093
vn 0.6003 -0.7568 0.2584
vn -0.3139 -0.6898 -0.6524
vn 0.6997 -0.0214 -0.7141
vn -0.9336 -0.3512 -0.0708
vn -0.0394 -0.4015 0.9150
vn -0.5482 0.6547 0.5205
vn -0.9057 -0.3683 0.2098
vn -0.5782 0.3083 -0.7554
vn -0.0197 -0.7657 -0.6429
vn 0.9739 0.0575 0.2194
vn 0.1180 0.2102 0.9705
vn -0.4592 -0.7128 0.5302
vn 0.4256 -0.8708 -0.2462
vn 0.4057 0.8412 0.3576
vn 0.2301 0.6268 -0.7444
vn -0.8231 0.2595 -0.5052
vn -0.6475 0.4738 0.5969
vn 0.1001 -0.6747 -0.7312
vn 0.8760 0.4364 -0.2051
vn -0.9235 -0.3669 0.1117
vn -0.2618 0.6890 0.6758
vn 0.5830 -0.1254 -0.8028
vn 0.7534 0.5252 0.3957
vn -0.6237 -0.5291 -0.5755
vn -0.7248 0.1018 0.6814
vn 0.3691 0.2526 0.8944
vn -0.6235 0.6333 0.4584
vn -0.8923 -0.4447 0.0779
vn 0.1338 -0.8382 0.5286
vn 0.2145 0.9500 0.2267
vn 0.9083 0.2483 -0.3367
vn 0.0381 -0.0828 -0.9958
vn -0.6556 0.6190 -0.4325
vn 0.4015 -0.9156 -0.0209
vn 0.7715 0.3889 0.5035
vn -0.7014 -0.3740 -0.6068
vn -0.4402 0.8863 -0.1436
vn 0.8957 -0.4085 0.1755
vn 0.2673 0.7233 0.6367
vn -0.0592 -0.7934 -0.6058
vn -0.8849 0.3182 -0.3402
vn -0.0738 -0.7788 0.6229
vn 0.7426 0.0284 0.6691
vn -0.0538 0.8719 0.4867
vn -0.8977 0.0376 0.4390
vn 0.7293 -0.6802 0.0740
vn -0.0853 -0.6906 -0.7182
vn 0.0798 0.4230 -0.9026
vn 0.8944 0.4334 -0.1105
vn -0.9816 0.0883 -0.1694
vn -0.0468 -0.9950 0.0882
vn 0.0496 0.9759 -0.2125
vn 0.9989 0.0243 0.0411
vn -0.7581 -0.6088 -0.2339
vn 0.4344 -0.7950 0.4233
vn -0.5865 0.6469 -0.4874
vn 0.7005 0.7085 0.0851
vn 0.2244 -0.9012 -0.3709
vn 0.8056 -0.3677 0.4646
vn -0.1976 -0.0397 0.9795
vn -0.7983 -0.5910 0.1159
vn 0.8807 -0.1794 -0.4384
vn -0.0173 0.2830 -0.9590
vn -0.1717 0.9826 -0.0712
vn 0.7263 0.5201 0.4494
vn -0.9857 -0.0694 -0.1533
vn 0.2221 -0.5335 -0.8161
vn -0.2340 0.6320 0.7388
vn 0.9537 0.2341 0.1890
vn -0.6050 -0.2688 -0.7495
vn 0.6827 -0.6061 -0.4081
vn -0.8001 0.5552 0.2270
vn 0.5017 0.4259 0.7530
vn 0.9491 0.0899 0.3018
vn 0.2098 -0.7057 0.6767
vn -0.1746 -0.8919 -0.4172
vn 0.5896 -0.0694 -0.8047
vn 0.2288 0.1759 0.9575
vn -0.0556 0.9774 0.2039
vn -0.9302 0.3356 -0.1489
vn -0.6459 -0.4659 0.6048
vn 0.1536 0.3492 -0.9244
vn 0.6933 0.5977 0.4025
vn -0.7709 -0.4989 -0.3961
vn -0.3202 -0.3373 0.8853
vn 0.4637 0.7815 -0.4174
vn 0.6470 0.0917 0.7570
vn -0.5501 0.0940 -0.8298
vn -0.6119 -0.7250 0.3163
vn 0.1676 0.1408 -0.9758
vn 0.2893 -0.8589 -0.4225
vn -0.7146 -0.6810 0.1602
vn -0.8404 0.3524 -0.4117
vn 0.8999 -0.1638 -0.4040
vn 0.5917 0.7975 0.1175
vn 0.1415 0.1899 0.9716
vn 0.4498 -0.7714 0.4501
vn -0.7121 0.6972 0.0826
vn 0.5040 0.5154 -0.6931
vn -0.4462 -0.4425 0.7779
vn 0.7065 -0.7021 0.0888
vn -0.1248 0.9524 -0.2780
vn 0.6229 -0.0868 -0.7775
vn -0.6269 0.3006 0.7188
vn 0.0789 -0.8899 0.4493
vn -0.2128 -0.7249 0.6552
# 259 vertex normals

vt 0.6430 0.7088 0.0000
vt 0.6655 0.6880 0.0000
vt 0.6655 0.7119 0.0000
vt 0.6469 0.7029 0.0000
vt 0.6453 0.7430 0.0000
vt 0.6450 0.7669 0.0000
vt 0.6570 0.8239 0.0000
vt 0.6636 0.7520 0.0000
vt 0.6467 0.7292 0.0000
vt 0.6655 0.7383 0.0000
vt 0.6639 0.8023 0.0000
vt 0.6472 0.7758 0.0000
vt 0.6852 0.7237 0.0000
vt 0.6866 0.6865 0.0000
vt 0.6801 0.7839 0.0000
vt 0.6802 0.8103 0.0000
vt 0.6820 0.6960 0.0000
vt 0.6800 0.7621 0.0000
vt 0.6386 0.8106 0.0000
vt 0.6716 0.7811 0.0000
vt 0.6628 0.8149 0.0000
vt 0.6373 0.8022 0.0000
vt 0.6415 0.8590 0.0000
vt 0.6363 0.8928 0.0000
vt 0.6527 0.9736 0.0000
vt 0.6706 0.8718 0.0000
vt 0.6299 0.8395 0.0000
vt 0.6530 0.8523 0.0000
vt 0.6488 0.9429 0.0000
vt 0.6326 0.9055 0.0000
vt 0.6799 0.8317 0.0000
vt 0.6917 0.7791 0.0000
vt 0.6844 0.9169 0.0000
vt 0.6747 0.9543 0.0000
vt 0.6943 0.7925 0.0000
vt 0.6911 0.8861 0.0000
vt 0.6730 0.7923 0.0000
vt 0.6768 0.7813 0.0000
vt 0.6651 0.7939 0.0000
vt 0.6643 0.7891 0.0000
vt 0.6728 0.8104 0.0000
vt 0.6664 0.8230 0.0000
vt 0.6669 0.8532 0.0000
vt 0.6789 0.8151 0.0000
vt 0.6550 0.8031 0.0000
vt 0.6523 0.8079 0.0000
vt 0.6497 0.8417 0.0000
vt 0.6578 0.8277 0.0000
vt 0.6531 0.8002 0.0000
vt 0.6661 0.7805 0.0000
vt 0.6679 0.8320 0.0000
vt 0.6550 0.8460 0.0000
vt 0.6775 0.7855 0.0000
vt 0.6770 0.8205 0.0000
vt 0.6562 0.8883 0.0000
vt 0.6696 0.8696 0.0000
vt 0.6899 0.8910 0.0000
vt 0.6748 0.8829 0.0000
vt 0.6585 0.9189 0.0000
vt 0.6695 0.9403 0.0000
vt 0.6793 0.9915 0.0000
vt 0.6643 0.9270 0.0000
vt 0.6909 0.9066 0.0000
vt 0.7124 0.9147 0.0000
vt 0.7154 0.9721 0.0000
vt 0.6864 0.9484 0.0000
vt 0.7283 0.9017 0.0000
vt 0.7071 0.8683 0.0000
vt 0.6981 0.9556 0.0000
vt 0.7205 0.9793 0.0000
vt 0.6831 0.8768 0.0000
vt 0.6822 0.9361 0.0000
vt 0.6425 0.7701 0.0000
vt 0.6645 0.7432 0.0000
vt 0.6781 0.7741 0.0000
vt 0.6573 0.7625 0.0000
vt 0.6454 0.8145 0.0000
vt 0.6526 0.8455 0.0000
vt 0.6661 0.9194 0.0000
vt 0.6598 0.8262 0.0000
vt 0.6681 0.7967 0.0000
vt 0.6933 0.8084 0.0000
vt 0.6944 0.8914 0.0000
vt 0.6653 0.8571 0.0000
vt 0.7152 0.7895 0.0000
vt 0.7018 0.7413 0.0000
vt 0.6920 0.8676 0.0000
vt 0.7071 0.9018 0.0000
vt 0.6830 0.7536 0.0000
vt 0.6813 0.8393 0.0000
vt 0.7087 0.7759 0.0000
vt 0.7036 0.7143 0.0000
vt 0.7245 0.7354 0.0000
vt 0.7245 0.7643 0.0000
vt 0.7091 0.7996 0.0000
vt 0.7207 0.8207 0.0000
vt 0.7207 0.8442 0.0000
vt 0.6997 0.7707 0.0000
vt 0.7414 0.7876 0.0000
vt 0.7477 0.7586 0.0000
vt 0.7522 0.8149 0.0000
vt 0.7364 0.8248 0.0000
vt 0.7477 0.7082 0.0000
vt 0.7245 0.6731 0.0000
vt 0.7207 0.7659 0.0000
vt 0.7439 0.7891 0.0000
vt 0.7036 0.6886 0.0000
vt 0.7044 0.7472 0.0000
vt 0.7103 0.7471 0.0000
vt 0.7078 0.7375 0.0000
vt 0.7180 0.7485 0.0000
vt 0.7180 0.7444 0.0000
vt 0.7105 0.7629 0.0000
vt 0.7161 0.7738 0.0000
vt 0.7161 0.8001 0.0000
vt 0.7059 0.7670 0.0000
vt 0.7261 0.7565 0.0000
vt 0.7292 0.7607 0.0000
vt 0.7314 0.7901 0.0000
vt 0.7237 0.7780 0.0000
vt 0.7292 0.7540 0.0000
vt 0.7180 0.7369 0.0000
vt 0.7161 0.7817 0.0000
vt 0.7273 0.7938 0.0000
vt 0.7078 0.7412 0.0000
vt 0.7082 0.7717 0.0000
vt 0.8645 0.3422 0.0000
vt 0.8483 0.3422 0.0000
vt 0.8538 0.3431 0.0000
vt 0.8642 0.3431 0.0000
vt 0.8681 0.3431 0.0000
vt 0.8785 0.3431 0.0000
vt 0.8427 0.6072 0.0000
vt 0.8487 0.6131 0.0000
vt 0.8535 0.6136 0.0000
vt 0.8474 0.6076 0.0000
vt 0.8518 0.3608 0.0000
vt 0.8800 0.3552 0.0000
vt 0.8925 0.4576 0.0000
vt 0.8744 0.4531 0.0000
vt 0.8560 0.3551 0.0000
vt 0.8796 0.5469 0.0000
vt 0.8706 0.5381 0.0000
vt 0.8866 0.5476 0.0000
vt 0.8777 0.5388 0.0000
vt 0.8409 0.3404 0.0000
vt 0.8374 0.3457 0.0000
vt 0.8364 0.3404 0.0000
vt 0.8830 0.3391 0.0000
vt 0.8860 0.3391 0.0000
vt 0.8864 0.3425 0.0000
vt 0.8490 0.3419 0.0000
vt 0.8461 0.3419 0.0000
vt 0.8467 0.3453 0.0000
vt 0.9427 0.5503 0.0000
vt 0.9404 0.5498 0.0000
vt 0.9426 0.5460 0.0000
vt 0.9448 0.5465 0.0000
vt 0.9595 0.5778 0.0000
vt 0.9610 0.5776 0.0000
vt 0.9608 0.5768 0.0000
vt 0.9593 0.5769 0.0000
vt 0.9543 0.5557 0.0000
vt 0.9524 0.5580 0.0000
vt 0.9526 0.5553 0.0000
vt 0.9507 0.5576 0.0000
vt 0.9613 0.5669 0.0000
vt 0.9591 0.5672 0.0000
vt 0.9610 0.5656 0.0000
vt 0.9587 0.5659 0.0000
vt 0.8799 0.5190 0.0000
vt 0.8829 0.5204 0.0000
vt 0.8881 0.5096 0.0000
vt 0.8851 0.5082 0.0000
vt 0.9569 0.5783 0.0000
vt 0.9592 0.5765 0.0000
vt 0.9612 0.5749 0.0000
vt 0.9589 0.5767 0.0000
vt 0.9217 0.5253 0.0000
vt 0.9166 0.5323 0.0000
vt 0.9239 0.5264 0.0000
vt 0.9188 0.5334 0.0000
vt 0.9431 0.5480 0.0000
vt 0.9397 0.5507 0.0000
vt 0.9460 0.5457 0.0000
vt 0.9427 0.5484 0.0000
vt 0.9519 0.5613 0.0000
vt 0.9516 0.5639 0.0000
vt 0.9521 0.5659 0.0000
vt 0.9524 0.5633 0.0000
vt 0.9802 0.5636 0.0000
vt 0.9811 0.5635 0.0000
vt 0.9811 0.5647 0.0000
vt 0.9803 0.5648 0.0000
vt 0.9651 0.5652 0.0000
vt 0.9643 0.5637 0.0000
vt 0.9649 0.5672 0.0000
vt 0.9640 0.5657 0.0000
vt 0.9748 0.5627 0.0000
vt 0.9736 0.5629 0.0000
vt 0.9749 0.5644 0.0000
vt 0.9736 0.5647 0.0000
vt 0.8665 0.5784 0.0000
vt 0.8616 0.5820 0.0000
vt 0.8584 0.5826 0.0000
vt 0.8633 0.5790 0.0000
vt 0.8960 0.6520 0.0000
vt 0.8971 0.6528 0.0000
vt 0.8951 0.6541 0.0000
vt 0.8940 0.6533 0.0000
vt 0.8749 0.6104 0.0000
vt 0.8767 0.6088 0.0000
vt 0.8712 0.6131 0.0000
vt 0.8730 0.6115 0.0000
vt 0.8906 0.6317 0.0000
vt 0.8889 0.6305 0.0000
vt 0.8877 0.6336 0.0000
vt 0.8859 0.6324 0.0000
vt 0.8748 0.5458 0.0000
vt 0.8729 0.5377 0.0000
vt 0.8818 0.5369 0.0000
vt 0.8837 0.5449 0.0000
vt 0.8443 0.5899 0.0000
vt 0.8464 0.5928 0.0000
vt 0.8475 0.5904 0.0000
vt 0.8454 0.5874 0.0000
vt 0.8778 0.5655 0.0000
vt 0.8717 0.5652 0.0000
vt 0.8763 0.5595 0.0000
vt 0.8702 0.5592 0.0000
vt 0.8659 0.5883 0.0000
vt 0.8628 0.5839 0.0000
vt 0.8676 0.5847 0.0000
vt 0.8645 0.5803 0.0000
vt 0.8840 0.5038 0.0000
vt 0.8811 0.4958 0.0000
vt 0.8756 0.4949 0.0000
vt 0.8786 0.5030 0.0000
vt 0.8200 0.5479 0.0000
vt 0.8179 0.5509 0.0000
vt 0.8159 0.5484 0.0000
vt 0.8179 0.5455 0.0000
vt 0.8474 0.5235 0.0000
vt 0.8525 0.5233 0.0000
vt 0.8452 0.5175 0.0000
vt 0.8503 0.5173 0.0000
vt 0.8306 0.5464 0.0000
vt 0.8336 0.5420 0.0000
vt 0.8276 0.5427 0.0000
vt 0.8306 0.5383 0.0000
vt 0.6688 0.8782 0.0000
vt 0.6879 0.8612 0.0000
vt 0.6828 0.8808 0.0000
vt 0.6680 0.8734 0.0000
vt 0.6705 0.9063 0.0000
vt 0.6674 0.9259 0.0000
vt 0.6770 0.9727 0.0000
vt 0.6873 0.9137 0.0000
vt 0.6637 0.8950 0.0000
vt 0.6771 0.9024 0.0000
vt 0.6747 0.9549 0.0000
vt 0.6653 0.9332 0.0000
vt 0.6927 0.8905 0.0000
vt 0.6995 0.8600 0.0000
vt 0.6953 0.9399 0.0000
vt 0.6897 0.9615 0.0000
vt 0.7010 0.8678 0.0000
vt 0.6992 0.9220 0.0000
# 268 texture coords

o Box012
g Box012
usemtl 08___Default
s 2
f 1/1/1 2/2/2 3/3/3 4/4/4 
s 4
f 5/5/5 6/6/6 7/7/7 8/8/8 
s 8
f 1/1/1 4/4/4 6/6/6 5/5/5 
s 16
f 9/9/9 10/10/10 11/11/11 12/12/12 
s 32
f 13/13/13 14/14/14 15/15/15 16/16/16 
s 64
f 17/17/17 2/2/2 8/8/8 18/18/18 
s 2
f 14/14/14 13/13/13 10/10/10 3/3/3 
s 4
f 6/6/6 12/12/12 11/11/11 7/7/7 
s 8
f 4/4/4 9/9/9 12/12/12 6/6/6 
s 32
f 14/14/14 17/17/17 18/18/18 15/15/15 
s 2
f 2/2/2 17/17/17 14/14/14 3/3/3 
s 4
f 7/7/7 15/15/15 18/18/18 8/8/8 
s 16
f 10/10/10 13/13/13 16/16/16 11/11/11 
s 64
f 2/2/2 1/1/1 5/5/5 8/8/8 
s 2
f 10/10/10 9/9/9 4/4/4 3/3/3 
s 4
f 11/11/11 16/16/16 15/15/15 7/7/7 
s 2
f 19/19/19 20/20/20 21/21/21 22/22/22 
s 4
f 23/23/23 24/24/24 25/25/25 26/26/26 
s 8
f 19/19/19 22/22/22 24/24/24 23/23/23 
s 16
f 27/27/27 28/28/28 29/29/29 30/30/30 
s 32
f 31/31/31 32/32/32 33/33/33 34/34/34 
s 64
f 35/35/35 20/20/20 26/26/26 36/36/36 
s 2
f 32/32/32 31/31/31 28/28/28 21/21/21 
s 4
f 24/24/24 30/30/30 29/29/29 25/25/25 
s 8
f 22/22/22 27/27/27 30/30/30 24/24/24 
s 32
f 32/32/32 35/35/35 36/36/36 33/33/33 
s 2
f 20/20/20 35/35/35 32/32/32 21/21/21 
s 4
f 25/25/25 33/33/33 36/36/36 26/26/26 
s 16
f 28/28/28 31/31/31 34/34/34 29/29/29 
s 64
f 20/20/20 19/19/19 23/23/23 26/26/26 
s 2
f 28/28/28 27/27/27 22/22/22 21/21/21 
s 4
f 29/29/29 34/34/34 33/33/33 25/25/25 
s 2
f 37/37/37 38/38/38 39/39/39 40/40/40 
s 4
f 41/41/41 42/42/42 43/43/43 44/44/44 
s 8
f 37/37/37 40/40/40 42/42/42 41/41/41 
s 16
f 45/45/45 46/46/46 47/47/47 48/48/48 
s 32
f 49/49/49 50/50/50 51/51/51 52/52/52 
s 64
f 53/53/53 38/38/38 44/44/44 54/54/54 
s 2
f 50/50/50 49/49/49 46/46/46 39/39/39 
s 4
f 42/42/42 48/48/48 47/47/47 43/43/43 
s 8
f 40/40/40 45/45/45 48/48/48 42/42/42 
s 32
f 50/50/50 53/53/53 54/54/54 51/51/51 
s 2
f 38/38/38 53/53/53 50/50/50 39/39/39 
s 4
f 43/43/43 51/51/51 54/54/54 44/44/44 
s 16
f 46/46/46 49/49/49 52/52/52 47/47/47 
s 64
f 38/38/38 37/37/37 41/41/41 44/44/44 
s 2
f 46/46/46 45/45/45 40/40/40 39/39/39 
s 4
f 47/47/47 52/52/52 51/51/51 43/43/43 
s 2
f 55/55/55 56/56/56 57/57/57 58/58/58 
s 4
f 59/59/59 60/60/60 61/61/61 62/62/62 
s 8
f 55/55/55 58/58/58 60/60/60 59/59/59 
s 16
f 63/63/63 64/64/64 65/65/65 66/66/66 
s 32
f 67/67/67 68/68/68 69/69/69 70/70/70 
s 64
f 71/71/71 56/56/56 62/62/62 72/72/72 
s 2
f 68/68/68 67/67/67 64/64/64 57/57/57 
s 4
f 60/60/60 66/66/66 65/65/65 61/61/61 
s 8
f 58/58/58 63/63/63 66/66/66 60/60/60 
s 32
f 68/68/68 71/71/71 72/72/72 69/69/69 
s 2
f 56/56/56 71/71/71 68/68/68 57/57/57 
s 4
f 61/61/61 69/69/69 72/72/72 62/62/62 
s 16
f 64/64/64 67/67/67 70/70/70 65/65/65 
s 64
f 56/56/56 55/55/55 59/59/59 62/62/62 
s 2
f 64/64/64 63/63/63 58/58/58 57/57/57 
s 4
f 65/65/65 70/70/70 69/69/69 61/61/61 
s 2
f 73/73/73 74/74/74 75/75/75 76/76/76 
s 4
f 77/77/77 78/78/78 79/79/79 80/80/80 
s 8
f 73/73/73 76/76/76 78/78/78 77/77/77 
s 16
f 81/81/81 82/82/82 83/83/83 84/84/84 
s 32
f 85/85/85 86/86/86 87/87/87 88/88/88 
s 64
f 89/89/89 74/74/74 80/80/80 90/90/90 
s 2
f 86/86/86 85/85/85 82/82/82 75/75/75 
s 4
f 78/78/78 84/84/84 83/83/83 79/79/79 
s 8
f 76/76/76 81/81/81 84/84/84 78/78/78 
s 32
f 86/86/86 89/89/89 90/90/90 87/87/87 
s 2
f 74/74/74 89/89/89 86/86/86 75/75/75 
s 4
f 79/79/79 87/87/87 90/90/90 80/80/80 
s 16
f 82/82/82 85/85/85 88/88/88 83/83/83 
s 64
f 74/74/74 73/73/73 77/77/77 80/80/80 
s 2
f 82/82/82 81/81/81 76/76/76 75/75/75 
s 4
f 83/83/83 88/88/88 87/87/87 79/79/79 
s 2
f 91/91/91 92/92/92 93/93/93 94/94/94 
s 4
f 95/95/95 96/96/96 97/97/97 98/98/98 
s 8
f 91/91/91 94/94/94 96/96/96 95/95/95 
s 16
f 99/99/99 100/100/100 101/101/101 102/102/102 
s 32
f 103/103/103 104/104/104 105/105/105 106/106/106 
s 64
f 107/107/107 92/92/92 98/98/98 108/108/108 
s 2
f 104/104/104 103/103/103 100/100/100 93/93/93 
s 4
f 96/96/96 102/102/102 101/101/101 97/97/97 
s 8
f 94/94/94 99/99/99 102/102/102 96/96/96 
s 32
f 104/104/104 107/107/107 108/108/108 105/105/105 
s 2
f 92/92/92 107/107/107 104/104/104 93/93/93 
s 4
f 97/97/97 105/105/105 108/108/108 98/98/98 
s 16
f 100/100/100 103/103/103 106/106/106 101/101/101 
s 64
f 92/92/92 91/91/91 95/95/95 98/98/98 
s 2
f 100/100/100 99/99/99 94/94/94 93/93/93 
s 4
f 101/101/101 106/106/106 105/105/105 97/97/97 
s 2
f 109/109/109 110/110/110 111/111/111 112/112/112 
s 4
f 113/113/113 114/114/114 115/115/115 116/116/116 
s 8
f 109/109/109 112/112/112 114/114/114 113/113/113 
s 16
f 117/117/117 118/118/118 119/119/119 120/120/120 
s 32
f 121/121/121 122/122/122 123/123/123 124/124/124 
s 64
f 125/125/125 110/110/110 116/116/116 126/126/126 
s 2
f 122/122/122 121/121/121 118/118/118 111/111/111 
s 4
f 114/114/114 120/120/120 119/119/119 115/115/115 
s 8
f 112/112/112 117/117/117 120/120/120 114/114/114 
s 32
f 122/122/122 125/125/125 126/126/126 123/123/123 
s 2
f 110/110/110 125/125/125 122/122/122 111/111/111 
s 4
f 115/115/115 123/123/123 126/126/126 116/116/116 
s 16
f 118/118/118 121/121/121 124/124/124 119/119/119 
s 64
f 110/110/110 109/109/109 113/113/113 116/116/116 
s 2
f 118/118/118 117/117/117 112/112/112 111/111/111 
s 4
f 119/119/119 124/124/124 123/123/123 115/115/115 
s 2
f 127/127/127 128/128/128 129/129/129 130/130/130 131/131/131 132/132/132 132/132/133 133/131/134 
s 4
f 134/133/135 135/134/136 136/135/137 137/136/138 
s 8
f 138/137/139 127/127/127 133/131/134 139/138/140 140/139/141 141/140/142 
s 16
f 139/138/140 132/132/133 132/132/132 142/138/143 143/139/144 140/139/141 
s 32
f 142/138/143 131/131/131 130/130/130 144/141/145 145/140/146 143/139/144 
s 64
f 144/141/145 129/129/129 128/128/128 138/137/139 141/140/142 145/140/146 
s 8
f 140/139/141 146/142/147 147/143/148 141/140/142 
s 16
f 143/139/144 148/144/149 146/142/147 140/139/141 
s 32
f 145/140/146 149/145/150 148/144/149 143/139/144 
s 64
f 141/140/142 147/143/148 149/145/150 145/140/146 
s 8
f 146/142/147 135/134/136 134/133/135 147/143/148 
s 16
f 148/144/149 136/135/137 135/134/136 146/142/147 
s 32
f 149/145/150 137/136/138 136/135/137 148/144/149 
s 64
f 147/143/148 134/133/135 137/136/138 149/145/150 
s off
f 150/146/151 151/147/152 152/148/153 
f 153/149/154 154/150/155 155/151/156 
f 156/152/157 157/153/158 158/154/159 
f 159/149/160 160/151/161 161/150/162 
f 127/127/127 138/137/139 151/147/152 150/146/151 
f 138/137/139 128/128/128 152/148/153 151/147/152 
f 128/128/128 127/127/127 150/146/151 152/148/153 
f 133/131/134 132/132/133 154/150/155 153/149/154 
f 132/132/133 139/138/140 155/151/156 154/150/155 
f 139/138/140 133/131/134 153/149/154 155/151/156 
f 130/130/130 129/129/129 157/153/158 156/152/157 
f 129/129/129 144/141/145 158/154/159 157/153/158 
f 144/141/145 130/130/130 156/152/157 158/154/159 
f 131/131/131 142/138/143 160/151/161 159/149/160 
f 142/138/143 132/132/132 161/150/162 160/151/161 
f 132/132/132 131/131/131 159/149/160 161/150/162 
s 2
f 162/155/163 163/156/164 164/157/165 165/158/166 
s 4
f 166/159/167 167/160/168 168/161/169 169/162/170 
s 8
f 162/155/163 165/158/166 170/163/171 171/164/172 
s 16
f 165/158/166 164/157/165 172/165/173 170/163/171 
s 32
f 164/157/165 163/156/164 173/166/174 172/165/173 
s 64
f 163/156/164 162/155/163 171/164/172 173/166/174 
s 8
f 170/163/171 174/167/175 175/168/176 171/164/172 
s 16
f 172/165/173 176/169/177 174/167/175 170/163/171 
s 32
f 173/166/174 177/170/178 176/169/177 172/165/173 
s 64
f 171/164/172 175/168/176 177/170/178 173/166/174 
s 8
f 174/167/175 167/160/168 166/159/167 175/168/176 
s 16
f 176/169/177 168/161/169 167/160/168 174/167/175 
s 32
f 177/170/178 169/162/170 168/161/169 176/169/177 
s 64
f 175/168/176 166/159/167 169/162/170 177/170/178 
s 2
f 178/171/179 179/172/180 180/173/181 181/174/182 
s 4
f 182/175/183 183/176/184 184/177/185 185/178/186 
s 8
f 178/171/179 181/174/182 186/179/187 187/180/188 
s 16
f 181/174/182 180/173/181 188/181/189 186/179/187 
s 32
f 180/173/181 179/172/180 189/182/190 188/181/189 
s 64
f 179/172/180 178/171/179 187/180/188 189/182/190 
s 8
f 186/179/187 190/183/191 191/184/192 187/180/188 
s 16
f 188/181/189 192/185/193 190/183/191 186/179/187 
s 32
f 189/182/190 193/186/194 192/185/193 188/181/189 
s 64
f 187/180/188 191/184/192 193/186/194 189/182/190 
s 8
f 190/183/191 183/176/184 182/175/183 191/184/192 
s 16
f 192/185/193 184/177/185 183/176/184 190/183/191 
s 32
f 193/186/194 185/178/186 184/177/185 192/185/193 
s 64
f 191/184/192 182/175/183 185/178/186 193/186/194 
s 2
f 194/187/195 195/188/196 196/189/197 197/190/198 
s 4
f 198/191/199 199/192/200 200/193/201 201/194/202 
s 8
f 194/187/195 197/190/198 202/195/203 203/196/204 
s 16
f 197/190/198 196/189/197 204/197/205 202/195/203 
s 32
f 196/189/197 195/188/196 205/198/206 204/197/205 
s 64
f 195/188/196 194/187/195 203/196/204 205/198/206 
s 8
f 202/195/203 206/199/207 207/200/208 203/196/204 
s 16
f 204/197/205 208/201/209 206/199/207 202/195/203 
s 32
f 205/198/206 209/202/210 208/201/209 204/197/205 
s 64
f 203/196/204 207/200/208 209/202/210 205/198/206 
s 8
f 206/199/207 199/192/200 198/191/199 207/200/208 
s 16
f 208/201/209 200/193/201 199/192/200 206/199/207 
s 32
f 209/202/210 201/194/202 200/193/201 208/201/209 
s 64
f 207/200/208 198/191/199 201/194/202 209/202/210 
s 2
f 210/203/211 211/204/212 212/205/213 213/206/214 
s 4
f 214/207/215 215/208/216 216/209/217 217/210/218 
s 8
f 210/203/211 213/206/214 218/211/219 219/212/220 
s 16
f 213/206/214 212/205/213 220/213/221 218/211/219 
s 32
f 212/205/213 211/204/212 221/214/222 220/213/221 
s 64
f 211/204/212 210/203/211 219/212/220 221/214/222 
s 8
f 218/211/219 222/215/223 223/216/224 219/212/220 
s 16
f 220/213/221 224/217/225 222/215/223 218/211/219 
s 32
f 221/214/222 225/218/226 224/217/225 220/213/221 
s 64
f 219/212/220 223/216/224 225/218/226 221/214/222 
s 8
f 222/215/223 215/208/216 214/207/215 223/216/224 
s 16
f 224/217/225 216/209/217 215/208/216 222/215/223 
s 32
f 225/218/226 217/210/218 216/209/217 224/217/225 
s 64
f 223/216/224 214/207/215 217/210/218 225/218/226 
s 2
f 226/219/227 227/220/228 228/221/229 229/222/230 
s 4
f 230/223/231 231/224/232 232/225/233 233/226/234 
s 8
f 226/219/227 229/222/230 234/227/235 235/228/236 
s 16
f 229/222/230 228/221/229 236/229/237 234/227/235 
s 32
f 228/221/229 227/220/228 237/230/238 236/229/237 
s 64
f 227/220/228 226/219/227 235/228/236 237/230/238 
s 8
f 234/227/235 238/231/239 239/232/240 235/228/236 
s 16
f 236/229/237 240/233/241 238/231/239 234/227/235 
s 32
f 237/230/238 241/234/242 240/233/241 236/229/237 
s 64
f 235/228/236 239/232/240 241/234/242 237/230/238 
s 8
f 238/231/239 231/224/232 230/223/231 239/232/240 
s 16
f 240/233/241 232/225/233 231/224/232 238/231/239 
s 32
f 241/234/242 233/226/234 232/225/233 240/233/241 
s 64
f 239/232/240 230/223/231 233/226/234 241/234/242 
s 2
f 242/235/243 243/236/244 244/237/245 245/238/246 
s 4
f 246/239/247 247/240/248 248/241/249 249/242/250 
s 8
f 242/235/243 245/238/246 250/243/251 251/244/252 
s 16
f 245/238/246 244/237/245 252/245/253 250/243/251 
s 32
f 244/237/245 243/236/244 253/246/254 252/245/253 
s 64
f 243/236/244 242/235/243 251/244/252 253/246/254 
s 8
f 250/243/251 254/247/255 255/248/256 251/244/252 
s 16
f 252/245/253 256/249/257 254/247/255 250/243/251 
s 32
f 253/246/254 257/250/258 256/249/257 252/245/253 
s 64
f 251/244/252 255/248/256 257/250/258 253/246/254 
s 8
f 254/247/255 247/240/248 246/239/247 255/248/256 
s 16
f 256/249/257 248/241/249 247/240/248 254/247/255 
s 32
f 257/250/258 249/242/250 248/241/249 256/249/257 
s 64
f 255/248/256 246/239/247 249/242/250 257/250/258 
s 2
f 258/251/19 259/252/20 260/253/21 261/254/259 
s 4
f 262/255/23 263/256/24 264/257/25 265/258/26 
s 8
f 258/251/19 261/254/259 263/256/24 262/255/23 
s 16
f 266/259/27 267/260/28 268/261/29 269/262/30 
s 32
f 270/263/31 271/264/32 272/265/33 273/266/34 
s 64
f 274/267/35 259/252/20 265/258/26 275/268/36 
s 2
f 271/264/32 270/263/31 267/260/28 260/253/21 
s 4
f 263/256/24 269/262/30 268/261/29 264/257/25 
s 8
f 261/254/259 266/259/27 269/262/30 263/256/24 
s 32
f 271/264/32 274/267/35 275/268/36 272/265/33 
s 2
f 259/252/20 274/267/35 271/264/32 260/253/21 
s 4
f 264/257/25 272/265/33 275/268/36 265/258/26 
s 16
f 267/260/28 270/263/31 273/266/34 268/261/29 
s 64
f 259/252/20 258/251/19 262/255/23 265/258/26 
s 2
f 267/260/28 266/259/27 261/254/259 260/253/21 
s 4
f 268/261/29 273/266/34 272/265/33 264/257/25 
# 238 polygons - 4 triangles

