# 3ds Max Wavefront OBJ Exporter v0.99 - (c)2007 guruware
# File Created: 01.07.2022 18:19:38

mtllib LowPolyTree2.mtl

#
# object Box018
#

v  -4.0084 -1.7569 48.3238
v  -42.3634 -1.7569 10.9312
v  -29.3996 0.0000 0.0000
v  -4.6779 0.0000 -24.1014
v  4.6779 0.0000 -24.1014
v  37.6892 0.0000 16.7880
v  12.9675 0.0000 40.8894
v  -32.4404 807.9233 -19.1298
v  -24.8326 814.3077 -12.6927
v  -18.8040 814.7745 -20.2807
v  -26.4118 808.3900 -26.7177
v  -34.0984 35.6831 47.3034
v  41.2101 24.4612 40.2492
v  31.3552 230.8507 18.0598
v  -11.7378 221.6718 18.0598
v  32.9205 24.4612 -23.4612
v  31.3552 230.8507 -18.0598
v  -24.0724 24.1319 -23.4437
v  -11.7378 221.6718 -18.0598
v  -7.0417 467.4611 49.1018
v  -28.2447 449.6674 31.1616
v  9.7601 468.7618 27.9541
v  -11.4430 450.9681 10.0139
v  -59.8104 -5.3695 79.5981
v  -68.3228 5.2222 79.3095
v  -70.6609 -5.3695 69.0198
v  79.4676 -8.1465 82.4071
v  86.4613 -8.1465 75.5889
v  87.4574 -1.2265 82.2261
v  -40.6450 -2.3285 -44.2592
v  -47.6387 -2.3285 -37.4409
v  -46.1316 4.4983 -44.0731
v  89.0043 -8.1465 -81.4069
v  96.9940 -1.2265 -81.2258
v  95.9979 -8.1465 -74.5887
v  -188.8360 152.2666 231.7099
v  -181.9921 127.4308 56.4683
v  -18.9024 191.9962 3.3025
v  -51.9468 175.2359 243.2898
v  -175.4374 192.8331 231.1967
v  -30.8111 215.8024 192.6892
v  -8.5787 298.1843 4.5272
v  -138.2582 215.8024 34.0352
v  204.1164 137.3472 213.2288
v  243.1001 137.3472 96.4816
v  199.3662 177.9137 74.0486
v  160.3825 177.9137 162.6283
v  170.5673 166.1035 -187.8775
v  16.6830 175.2359 -129.9769
v  16.1947 215.8024 -79.3764
v  126.8334 215.8024 -137.2769
v  -151.5000 216.1962 -189.8150
v  -190.9983 216.1962 -111.9313
v  -147.2644 256.7627 -86.1535
v  -131.2498 256.7627 -174.7934
v  212.2794 166.1035 -144.3166
v  16.1947 215.8024 108.8051
v  16.6830 175.2359 159.4057
v  -64.2918 175.2359 -125.6858
v  -43.1561 215.8024 -75.0852
v  -125.0407 175.2359 -7.5094
v  172.7254 175.2359 -7.5094
v  168.5455 206.6700 -118.5388
v  128.9915 215.8024 -7.1802
v  -81.3068 215.8024 -7.1802
v  -125.0362 269.6259 -193.9164
v  2.1975 248.1193 -141.9469
v  2.8463 304.0297 6.5937
v  -165.8161 289.5161 -84.0969
v  -127.8170 304.7545 -182.7321
v  -133.5937 324.6447 -53.2917
v  -0.4874 395.9833 14.7830
v  8.3831 324.6447 -99.9530
v  -204.0696 256.7064 135.0030
v  -127.4197 256.7064 198.0121
v  -100.6174 291.8350 167.8789
v  -156.5571 291.8350 112.3159
v  98.7525 281.6079 213.3723
v  92.4526 289.5161 71.1710
v  55.3636 324.6447 57.3918
v  71.8567 324.6447 163.9322
v  176.0907 324.9857 -51.6965
v  128.1365 324.9857 -104.8563
v  98.8750 360.1143 -75.6072
v  160.2729 360.1143 -38.9690
v  56.8924 281.6079 236.2531
v  -82.9973 324.6447 7.6451
v  -120.3166 289.5161 -5.3287
v  108.3839 289.5161 3.2637
v  66.1979 324.6447 7.3160
v  35.8134 289.5161 -78.0712
v  -34.3722 289.5161 167.4707
v  48.2476 316.7365 193.3751
v  -24.3059 324.6447 131.3202
v  25.2630 324.6447 -42.0947
v  182.8322 396.5330 -6.7291
v  114.2320 395.8166 82.9316
v  -4.1963 424.2779 41.0281
v  105.9691 393.6831 -64.8927
v  172.9089 422.5117 -17.9929
v  72.7240 423.5581 -53.7638
v  -14.7194 495.1699 19.0267
v  76.1019 452.6400 63.9350
v  -53.4552 338.3218 -134.2391
v  -120.0798 344.7462 -89.4698
v  -104.7799 380.1074 -69.4842
v  -48.7234 376.4262 -100.1183
v  -185.6424 401.2260 74.1350
v  -74.2546 421.3286 98.0961
v  -56.8707 444.0911 66.1043
v  -143.3659 435.6943 55.9461
v  -0.1503 476.3885 180.8955
v  52.1944 473.8142 155.8112
v  34.3759 493.3841 120.6021
v  -8.2562 499.9850 159.4075
v  -193.7185 391.6920 37.4911
v  13.7329 425.7643 -28.3293
v  34.3185 393.1461 -47.1224
v  -25.2393 431.1832 124.6428
v  -20.5148 451.2024 84.9867
v  54.6636 427.3808 86.8707
v  -119.6586 389.6061 -18.6672
v  -160.3304 422.3580 33.2835
v  -95.8185 422.7505 -10.1042
v  27.2971 449.4290 64.4323
v  -95.0939 525.0732 182.8279
v  -117.4463 498.2415 85.9958
v  -27.5495 532.2473 18.5029
v  -11.1726 537.2146 159.5775
v  -87.1089 550.5605 176.9083
v  -6.1029 559.4180 124.2915
v  -21.1145 599.7020 9.5007
v  -94.5377 552.1035 58.2983
v  137.9629 505.2338 93.1588
v  143.7417 497.0894 20.4190
v  114.1272 522.5555 14.0426
v  104.0973 528.9550 71.1589
v  57.3059 499.4825 -124.4984
v  -26.3139 512.4852 -61.5165
v  -18.9498 541.4640 -36.2409
v  38.7182 535.2885 -91.0164
v  -136.2689 538.7966 -63.1794
v  -148.2218 544.5456 -11.8903
v  -118.0615 570.9520 -9.4403
v  -121.8270 565.0861 -61.8857
v  88.9160 501.2051 -108.8799
v  9.4506 553.1217 68.1366
v  17.3599 530.4124 98.9937
v  -74.2681 514.6456 -42.5517
v  -53.9250 543.1185 -21.7050
v  -92.8949 523.3879 35.4387
v  85.8270 516.4211 -25.5475
v  66.5775 529.6580 -88.5154
v  59.6477 543.2975 -19.2985
v  -66.5752 548.2177 23.7732
v  -136.9668 624.5771 -50.3407
v  -70.5700 599.4236 -66.4125
v  -23.5203 631.3024 -5.1125
v  -120.3720 635.9591 7.1751
v  -132.8395 648.4704 -44.8952
v  -96.0802 656.7739 10.4021
v  -17.2854 694.5383 -0.7551
v  -51.3640 649.9167 -50.8680
v  -73.6280 605.9786 109.2021
v  -23.5862 598.3434 112.6430
v  -19.4195 622.2169 92.2401
v  -58.7532 628.2162 85.7630
v  75.3952 600.5869 52.1705
v  31.4921 612.7764 -4.8477
v  14.1721 639.9427 0.3988
v  52.2447 634.1535 39.6383
v  31.8320 637.4421 -80.4403
v  -3.5102 642.8315 -88.2819
v  -4.9739 667.5864 -67.5324
v  31.0483 662.0873 -70.5038
v  64.8903 602.2018 74.0127
v  -57.3671 650.8713 20.6830
v  -78.5197 629.5823 26.3450
v  18.1059 614.8017 -37.6717
v  3.9250 641.4937 -23.5361
v  -35.6389 622.9972 -49.9057
v  7.5871 616.4662 72.4980
v  50.7291 628.8750 58.8064
v  3.1004 641.6615 54.5487
v  -27.4281 646.2740 -31.8994
v  -11.0873 709.8392 -138.1753
v  23.3611 684.6857 -79.1824
v  -21.8601 716.5646 -16.5215
v  -61.4224 721.2212 -105.7743
v  -15.1194 733.7325 -132.6589
v  -57.5432 742.0360 -81.5781
v  -24.2452 779.8004 -9.2984
v  13.9814 735.1789 -56.3237
v  -145.7457 691.2407 -31.7196
v  -134.6824 683.6056 17.2052
v  -113.9419 707.4790 15.3420
v  -119.0239 713.4783 -24.1961
v  -48.3505 685.8490 94.6715
v  -6.3281 698.0385 36.2535
v  -16.3239 725.2048 21.1673
v  -42.9883 719.4156 68.8985
v  66.1831 722.7043 14.8879
v  63.5535 728.0937 -21.2181
v  43.2567 752.8485 -16.6663
v  56.4396 747.3495 16.9884
v  -72.2885 687.4639 90.8760
v  -56.2831 736.1334 -41.5429
v  -67.7768 714.8444 -60.1813
v  21.2744 700.0638 14.0114
v  3.6641 726.7559 4.4830
v  17.5720 708.2593 -40.9837
v  -87.2806 701.7283 35.5479
v  -61.7852 714.1371 72.9469
v  -71.3735 726.9236 26.0994
v  2.6789 731.5362 -27.9513
v  -18.5060 788.3842 -90.8895
v  3.6577 762.7553 -52.9341
v  -25.4372 795.2367 -12.6187
v  -50.8911 799.9814 -70.0430
v  -21.1003 812.7291 -87.3403
v  -48.3953 821.1896 -54.4754
v  -26.9718 903.2786 -7.9715
v  -2.3771 814.2028 -38.2270
v  -105.1439 769.4342 -22.3971
v  -98.0259 761.6548 9.0806
v  -84.6817 785.9794 7.8819
v  -87.9514 792.0921 -17.5565
v  -42.4809 763.9406 58.9216
v  -15.4441 776.3605 21.3361
v  -21.8753 804.0403 11.6298
v  -39.0309 798.1416 42.3396
v  31.2089 801.4924 7.5898
v  29.5170 806.9838 -15.6405
v  16.4582 832.2064 -12.7119
v  24.9400 826.6035 8.9412
v  -57.8823 765.5860 56.4796
v  -47.5846 815.1755 -28.7172
v  -54.9795 793.4841 -40.7090
v  2.3151 778.4240 7.0258
v  -9.0152 805.6205 0.8953
v  -0.0670 786.7744 -28.3575
v  -67.5281 780.1201 20.8821
v  -51.1247 792.7634 44.9442
v  -57.2936 805.7915 14.8031
v  -9.6490 810.4913 -19.9726
# 245 vertices

vn 0.3853 -0.6069 0.6952
vn -0.6709 -0.4127 -0.6160
vn -0.7803 -0.0496 -0.6234
vn 0.1152 -0.7175 -0.6869
vn -0.1182 -0.7130 -0.6912
vn 0.6797 0.2722 -0.6811
vn 0.7933 0.3745 0.4800
vn 0.1721 -0.8145 0.5540
vn -0.9313 0.3637 -0.0219
vn -0.0775 0.7616 0.6434
vn 0.6122 0.7603 -0.2171
vn -0.1527 0.3442 -0.9264
vn -0.5345 0.4371 0.7233
vn 0.6614 0.4946 0.5638
vn 0.7440 0.0658 0.6649
vn -0.7142 0.0653 0.6969
vn 0.5084 0.5210 -0.6856
vn 0.6870 0.1155 -0.7174
vn -0.5928 0.3258 -0.7365
vn -0.6937 0.0713 -0.7168
vn 0.0668 0.0629 0.9958
vn -0.9874 -0.0583 0.1471
vn 0.9976 0.0603 -0.0353
vn -0.1100 0.0267 -0.9936
vn 0.1113 -0.5642 0.8181
vn -0.5959 0.4309 0.6777
vn -0.8604 -0.5015 -0.0908
vn -0.1964 -0.5304 0.8247
vn 0.7878 -0.5663 -0.2424
vn 0.6943 0.4180 0.5859
vn 0.1113 -0.5642 -0.8181
vn -0.8604 -0.5015 0.0908
vn -0.5959 0.4309 -0.6777
vn -0.2135 -0.5074 -0.8348
vn 0.6819 0.4541 -0.5734
vn 0.7881 -0.5906 0.1733
vn -0.6763 -0.4841 0.5553
vn -0.6686 -0.6980 -0.2564
vn 0.0128 -0.9981 -0.0595
vn 0.2504 -0.2492 0.9355
vn -0.4710 0.5601 0.6815
vn 0.4973 0.6613 0.5616
vn -0.0192 0.9991 -0.0382
vn -0.7199 0.5292 -0.4491
vn 0.4832 -0.2832 0.8285
vn 0.9139 -0.4003 -0.0674
vn 0.6403 0.7666 -0.0492
vn 0.2151 0.8943 0.3925
vn 0.2990 -0.2868 -0.9101
vn -0.2212 -0.4130 -0.8835
vn -0.2095 0.7087 -0.6737
vn -0.0608 0.9019 -0.4276
vn -0.3588 -0.2565 -0.8975
vn -0.9744 -0.2172 -0.0586
vn -0.6040 0.7277 0.3251
vn 0.0450 0.7283 -0.6838
vn 0.9108 -0.3124 -0.2698
vn 0.3344 0.7651 0.5503
vn 0.2772 -0.5503 0.7877
vn -0.0493 -0.7134 -0.6990
vn 0.4053 0.5838 -0.7035
vn -0.7749 -0.3980 -0.4911
vn 0.8870 -0.3870 -0.2520
vn 0.5602 0.8157 -0.1441
vn 0.5718 0.8200 0.0253
vn -0.7210 0.6922 0.0302
vn -0.3242 -0.4745 -0.8184
vn 0.4603 -0.7070 -0.5368
vn 0.0540 -0.9983 0.0204
vn -0.9609 -0.2733 -0.0447
vn -0.4886 0.5615 -0.6678
vn -0.7201 0.6365 0.2764
vn 0.0425 0.9991 0.0022
vn 0.6684 0.5224 -0.5295
vn -0.9280 -0.3089 0.2081
vn -0.2144 -0.4049 0.8889
vn -0.1653 0.7619 0.6262
vn -0.4721 0.8775 0.0849
vn 0.7783 -0.2999 0.5516
vn 0.8954 -0.4429 0.0467
vn 0.7436 0.6685 0.0066
vn 0.4330 0.8986 0.0706
vn 0.9621 -0.2638 -0.0689
vn 0.3577 -0.2135 -0.9091
vn -0.1323 0.7266 -0.6742
vn 0.6416 0.7252 0.2498
vn -0.0253 -0.3085 0.9509
vn -0.6700 0.7285 0.1429
vn -0.8247 -0.5654 0.0139
vn 0.6912 -0.7121 0.1229
vn 0.5865 0.5584 0.5867
vn 0.7521 -0.3642 -0.5493
vn -0.0426 -0.3897 0.9199
vn -0.0352 0.8136 0.5804
vn -0.2202 0.8178 0.5317
vn 0.1931 0.6889 -0.6987
vn 0.9064 -0.4218 0.0241
vn 0.4290 -0.5190 0.7393
vn 0.0312 -0.9588 0.2823
vn 0.3346 -0.4606 -0.8221
vn 0.7407 0.5282 -0.4152
vn -0.1012 0.4300 -0.8972
vn -0.0804 0.9769 -0.1982
vn 0.2813 0.7151 0.6399
vn 0.0859 -0.5211 -0.8492
vn -0.7621 -0.5526 -0.3375
vn -0.6021 0.6226 -0.4999
vn -0.0048 0.7403 -0.6722
vn -0.7294 -0.1988 0.6545
vn -0.2705 -0.2474 0.9304
vn -0.2625 0.8031 0.5350
vn -0.2503 0.9526 0.1730
vn -0.1908 -0.0448 0.9806
vn 0.7815 -0.0141 0.6237
vn 0.6343 0.7638 -0.1196
vn -0.4697 0.8051 0.3623
vn -0.8817 -0.4275 -0.1998
vn 0.0060 0.5469 -0.8372
vn 0.2591 -0.7228 -0.6407
vn -0.2673 -0.5610 0.7834
vn -0.7651 0.5882 0.2620
vn 0.3350 -0.1239 0.9340
vn -0.8418 -0.5058 -0.1885
vn -0.5988 0.7059 -0.3784
vn -0.4998 0.6774 -0.5397
vn 0.5675 0.7987 0.2002
vn -0.4860 -0.3895 0.7824
vn -0.7042 -0.7099 0.0087
vn -0.0150 -0.9984 0.0554
vn 0.5130 -0.1815 0.8390
vn -0.2676 0.6453 0.7155
vn 0.6392 0.6801 0.3590
vn -0.0217 0.9889 -0.1470
vn -0.8163 0.4925 -0.3017
vn 0.7015 -0.2362 0.6724
vn 0.8513 -0.4401 -0.2857
vn 0.6088 0.7319 -0.3061
vn 0.3405 0.9094 0.2389
vn 0.0068 -0.4041 -0.9147
vn -0.4744 -0.5244 -0.7071
vn -0.4196 0.5965 -0.6842
vn -0.1892 0.8492 -0.4930
vn -0.6073 -0.3450 -0.7156
vn -0.9504 -0.1862 0.2491
vn -0.4766 0.7775 0.4104
vn -0.1617 0.6464 -0.7456
vn 0.7940 -0.3654 -0.4858
vn 0.5012 0.7756 0.3838
vn 0.4829 -0.4879 0.7271
vn -0.2954 -0.7783 -0.5540
vn 0.1460 0.4640 -0.8737
vn -0.8811 -0.3948 -0.2602
vn 0.7785 -0.4426 -0.4451
vn 0.4967 0.7744 -0.3918
vn 0.5627 0.7985 -0.2138
vn -0.6829 0.7120 0.1633
vn -0.7943 -0.4047 -0.4531
vn -0.0131 -0.7884 -0.6150
vn -0.0750 -0.9970 -0.0209
vn -0.8183 -0.2199 0.5310
vn -0.7353 0.6080 -0.2994
vn -0.4111 0.6230 0.6655
vn 0.1475 0.9890 -0.0141
vn 0.2811 0.4204 -0.8627
vn -0.6644 -0.3003 0.6844
vn 0.2923 -0.5380 0.7907
vn 0.3378 0.6294 0.6998
vn -0.2883 0.8548 0.4316
vn 0.8715 -0.4900 -0.0196
vn 0.6304 -0.6155 -0.4729
vn 0.7447 0.4813 -0.4624
vn 0.5336 0.8300 -0.1623
vn 0.7164 -0.3523 -0.6023
vn -0.2658 -0.2150 -0.9397
vn -0.4284 0.7143 -0.5534
vn 0.7310 0.6494 -0.2093
vn 0.4575 -0.4449 0.7699
vn -0.4559 0.6712 0.5845
vn -0.7371 -0.5500 0.3927
vn 0.4491 -0.7869 -0.4232
vn 0.9208 0.3709 0.1207
vn 0.3555 -0.4014 -0.8441
vn 0.4443 -0.5106 0.7361
vn 0.4676 0.6722 0.5740
vn 0.2601 0.7009 0.6641
vn -0.2052 0.6031 -0.7708
vn 0.2061 -0.4047 -0.8909
vn 0.5854 -0.7884 -0.1890
vn -0.0015 -0.9970 -0.0778
vn -0.7435 -0.2199 -0.6315
vn 0.0758 0.6080 -0.7903
vn -0.7555 0.6230 -0.2028
vn 0.0558 0.9890 0.1372
vn 0.9071 0.4204 0.0217
vn -0.8463 -0.3003 -0.4401
vn -0.6736 -0.5380 0.5069
vn -0.5734 0.6294 0.5244
vn -0.4961 0.8548 -0.1523
vn 0.2688 -0.4900 0.8292
vn 0.6339 -0.6155 0.4682
vn 0.6567 0.4813 0.5807
vn 0.3086 0.8300 0.4646
vn 0.7825 -0.3523 0.5134
vn 0.8239 -0.2150 -0.5243
vn 0.4072 0.7143 -0.5692
vn 0.4103 0.6494 0.6402
vn -0.6063 -0.4449 0.6591
vn -0.6907 0.6712 -0.2691
vn -0.5877 -0.5500 -0.5934
vn 0.5343 -0.7869 0.3088
vn 0.1486 0.3709 0.9167
vn 0.9106 -0.4014 0.0984
vn -0.5777 -0.5106 0.6368
vn -0.4157 0.6722 0.6126
vn -0.5615 0.7009 0.4398
vn 0.6795 0.6031 -0.4177
vn 0.1682 -0.4005 -0.9007
vn 0.4507 -0.8806 -0.1465
vn 0.0040 -0.9926 -0.1211
vn -0.7554 -0.2620 -0.6006
vn 0.1120 0.5548 -0.8244
vn -0.8895 0.3493 -0.2947
vn 0.0459 0.9974 0.0547
vn 0.9815 0.1909 0.0121
vn -0.7929 -0.3999 -0.4597
vn -0.5665 -0.6793 0.4665
vn -0.6898 0.4058 0.5996
vn -0.6464 0.7409 -0.1823
vn 0.2728 -0.6145 0.7402
vn 0.5949 -0.7293 0.3380
vn 0.7215 0.2676 0.6386
vn 0.2501 0.8101 0.5302
vn 0.7815 -0.3316 0.5284
vn 0.8119 -0.2338 -0.5349
vn 0.5952 0.4023 -0.6956
vn 0.4346 0.6483 0.6252
vn -0.5980 -0.5574 0.5760
vn -0.8124 0.3672 -0.4529
vn -0.4349 -0.5968 -0.6743
vn 0.6229 -0.7699 0.1390
vn 0.2027 0.2122 0.9560
vn 0.9032 -0.3464 0.2534
vn -0.5284 -0.5820 0.6182
vn -0.4975 0.4466 0.7436
vn -0.6990 0.3779 0.6071
vn 0.7894 0.3668 -0.4922
# 246 vertex normals

vt 0.5094 0.3537 0.0000
vt 0.4768 0.3537 0.0000
vt 0.4878 0.3544 0.0000
vt 0.5088 0.3544 0.0000
vt 0.5167 0.3544 0.0000
vt 0.5448 0.3544 0.0000
vt 0.5238 0.3544 0.0000
vt 0.4852 0.6476 0.0000
vt 0.4917 0.6499 0.0000
vt 0.4968 0.6501 0.0000
vt 0.4903 0.6478 0.0000
vt 0.4838 0.3673 0.0000
vt 0.5477 0.3632 0.0000
vt 0.5394 0.4382 0.0000
vt 0.5028 0.4348 0.0000
vt 0.5407 0.3632 0.0000
vt 0.4923 0.3631 0.0000
vt 0.5068 0.5240 0.0000
vt 0.4888 0.5176 0.0000
vt 0.5210 0.5245 0.0000
vt 0.5030 0.5181 0.0000
vt 0.4620 0.3524 0.0000
vt 0.4548 0.3563 0.0000
vt 0.4528 0.3524 0.0000
vt 0.5802 0.3514 0.0000
vt 0.5862 0.3514 0.0000
vt 0.5870 0.3539 0.0000
vt 0.4783 0.3535 0.0000
vt 0.4723 0.3535 0.0000
vt 0.4736 0.3560 0.0000
vt 0.5883 0.3514 0.0000
vt 0.5951 0.3539 0.0000
vt 0.5942 0.3514 0.0000
vt 0.4457 0.6798 0.0000
vt 0.4481 0.6694 0.0000
vt 0.5054 0.6963 0.0000
vt 0.4938 0.6894 0.0000
vt 0.4504 0.6967 0.0000
vt 0.5012 0.7062 0.0000
vt 0.5090 0.7406 0.0000
vt 0.4635 0.7062 0.0000
vt 0.5838 0.6736 0.0000
vt 0.5975 0.6736 0.0000
vt 0.5821 0.6905 0.0000
vt 0.5684 0.6905 0.0000
vt 0.5720 0.6855 0.0000
vt 0.5179 0.6894 0.0000
vt 0.5177 0.7062 0.0000
vt 0.5566 0.7062 0.0000
vt 0.4588 0.7064 0.0000
vt 0.4449 0.7064 0.0000
vt 0.4603 0.7233 0.0000
vt 0.4659 0.7233 0.0000
vt 0.5867 0.6855 0.0000
vt 0.4895 0.6894 0.0000
vt 0.4969 0.7062 0.0000
vt 0.4681 0.6894 0.0000
vt 0.5728 0.6894 0.0000
vt 0.5713 0.7024 0.0000
vt 0.5574 0.7062 0.0000
vt 0.4835 0.7062 0.0000
vt 0.4681 0.7287 0.0000
vt 0.5128 0.7197 0.0000
vt 0.5131 0.7430 0.0000
vt 0.4538 0.7369 0.0000
vt 0.4671 0.7433 0.0000
vt 0.4651 0.7516 0.0000
vt 0.5119 0.7813 0.0000
vt 0.5150 0.7516 0.0000
vt 0.4403 0.7233 0.0000
vt 0.4673 0.7233 0.0000
vt 0.4767 0.7379 0.0000
vt 0.4570 0.7379 0.0000
vt 0.5468 0.7337 0.0000
vt 0.5445 0.7369 0.0000
vt 0.5315 0.7516 0.0000
vt 0.5373 0.7516 0.0000
vt 0.5739 0.7517 0.0000
vt 0.5571 0.7517 0.0000
vt 0.5468 0.7663 0.0000
vt 0.5684 0.7663 0.0000
vt 0.5320 0.7337 0.0000
vt 0.4829 0.7516 0.0000
vt 0.4698 0.7369 0.0000
vt 0.5501 0.7369 0.0000
vt 0.5353 0.7516 0.0000
vt 0.5246 0.7369 0.0000
vt 0.5000 0.7369 0.0000
vt 0.5290 0.7483 0.0000
vt 0.5035 0.7516 0.0000
vt 0.5209 0.7516 0.0000
vt 0.5763 0.7815 0.0000
vt 0.5522 0.7812 0.0000
vt 0.5106 0.7931 0.0000
vt 0.5493 0.7803 0.0000
vt 0.5728 0.7923 0.0000
vt 0.5376 0.7928 0.0000
vt 0.5069 0.8226 0.0000
vt 0.5388 0.8049 0.0000
vt 0.4933 0.7573 0.0000
vt 0.4699 0.7599 0.0000
vt 0.4752 0.7747 0.0000
vt 0.4949 0.7731 0.0000
vt 0.4468 0.7835 0.0000
vt 0.4860 0.7918 0.0000
vt 0.4921 0.8013 0.0000
vt 0.4617 0.7978 0.0000
vt 0.5120 0.8148 0.0000
vt 0.5304 0.8137 0.0000
vt 0.5241 0.8219 0.0000
vt 0.5091 0.8246 0.0000
vt 0.4440 0.7795 0.0000
vt 0.5169 0.7937 0.0000
vt 0.5241 0.7801 0.0000
vt 0.5032 0.7959 0.0000
vt 0.5048 0.8043 0.0000
vt 0.5313 0.7944 0.0000
vt 0.4700 0.7786 0.0000
vt 0.4557 0.7923 0.0000
vt 0.4784 0.7924 0.0000
vt 0.5216 0.8035 0.0000
vt 0.4786 0.8351 0.0000
vt 0.4708 0.8239 0.0000
vt 0.5024 0.8380 0.0000
vt 0.5081 0.8401 0.0000
vt 0.4814 0.8457 0.0000
vt 0.5099 0.8494 0.0000
vt 0.5046 0.8661 0.0000
vt 0.4788 0.8463 0.0000
vt 0.5605 0.8268 0.0000
vt 0.5626 0.8234 0.0000
vt 0.5522 0.8340 0.0000
vt 0.5486 0.8367 0.0000
vt 0.5322 0.8244 0.0000
vt 0.5028 0.8298 0.0000
vt 0.5054 0.8419 0.0000
vt 0.5257 0.8393 0.0000
vt 0.4642 0.8408 0.0000
vt 0.4600 0.8432 0.0000
vt 0.4706 0.8542 0.0000
vt 0.4692 0.8517 0.0000
vt 0.5433 0.8251 0.0000
vt 0.5154 0.8467 0.0000
vt 0.5182 0.8373 0.0000
vt 0.4860 0.8307 0.0000
vt 0.4931 0.8426 0.0000
vt 0.4794 0.8343 0.0000
vt 0.5422 0.8314 0.0000
vt 0.5354 0.8370 0.0000
vt 0.5330 0.8426 0.0000
vt 0.4887 0.8447 0.0000
vt 0.4639 0.8765 0.0000
vt 0.4872 0.8660 0.0000
vt 0.5038 0.8793 0.0000
vt 0.4697 0.8812 0.0000
vt 0.4654 0.8864 0.0000
vt 0.4783 0.8899 0.0000
vt 0.5060 0.9056 0.0000
vt 0.4940 0.8870 0.0000
vt 0.4862 0.8687 0.0000
vt 0.5038 0.8656 0.0000
vt 0.5052 0.8755 0.0000
vt 0.4914 0.8780 0.0000
vt 0.5385 0.8665 0.0000
vt 0.5231 0.8716 0.0000
vt 0.5170 0.8829 0.0000
vt 0.5304 0.8805 0.0000
vt 0.5232 0.8819 0.0000
vt 0.5108 0.8841 0.0000
vt 0.5103 0.8944 0.0000
vt 0.5230 0.8921 0.0000
vt 0.5349 0.8672 0.0000
vt 0.4919 0.8874 0.0000
vt 0.4845 0.8786 0.0000
vt 0.5184 0.8724 0.0000
vt 0.5134 0.8835 0.0000
vt 0.4995 0.8758 0.0000
vt 0.5147 0.8731 0.0000
vt 0.5299 0.8783 0.0000
vt 0.5131 0.8836 0.0000
vt 0.5024 0.8855 0.0000
vt 0.5082 0.9120 0.0000
vt 0.5203 0.9015 0.0000
vt 0.5044 0.9148 0.0000
vt 0.4905 0.9167 0.0000
vt 0.5067 0.9220 0.0000
vt 0.4918 0.9254 0.0000
vt 0.5035 0.9411 0.0000
vt 0.5170 0.9226 0.0000
vt 0.4608 0.9043 0.0000
vt 0.4647 0.9011 0.0000
vt 0.4720 0.9110 0.0000
vt 0.4702 0.9135 0.0000
vt 0.4951 0.9020 0.0000
vt 0.5098 0.9071 0.0000
vt 0.5063 0.9184 0.0000
vt 0.4969 0.9160 0.0000
vt 0.5353 0.9174 0.0000
vt 0.5344 0.9196 0.0000
vt 0.5273 0.9299 0.0000
vt 0.5319 0.9276 0.0000
vt 0.4866 0.9027 0.0000
vt 0.4923 0.9230 0.0000
vt 0.4882 0.9141 0.0000
vt 0.5195 0.9079 0.0000
vt 0.5133 0.9190 0.0000
vt 0.5182 0.9113 0.0000
vt 0.4814 0.9086 0.0000
vt 0.4903 0.9138 0.0000
vt 0.4870 0.9191 0.0000
vt 0.5130 0.9210 0.0000
vt 0.5055 0.9447 0.0000
vt 0.5133 0.9340 0.0000
vt 0.5031 0.9476 0.0000
vt 0.4942 0.9495 0.0000
vt 0.5046 0.9549 0.0000
vt 0.4950 0.9584 0.0000
vt 0.5026 0.9926 0.0000
vt 0.5112 0.9555 0.0000
vt 0.4751 0.9368 0.0000
vt 0.4776 0.9336 0.0000
vt 0.4823 0.9437 0.0000
vt 0.4811 0.9463 0.0000
vt 0.4971 0.9345 0.0000
vt 0.5066 0.9397 0.0000
vt 0.5044 0.9512 0.0000
vt 0.4983 0.9488 0.0000
vt 0.5230 0.9502 0.0000
vt 0.5224 0.9525 0.0000
vt 0.5178 0.9630 0.0000
vt 0.5208 0.9606 0.0000
vt 0.4917 0.9352 0.0000
vt 0.4953 0.9559 0.0000
vt 0.4927 0.9468 0.0000
vt 0.5129 0.9406 0.0000
vt 0.5089 0.9519 0.0000
vt 0.5120 0.9440 0.0000
vt 0.4883 0.9413 0.0000
vt 0.4941 0.9465 0.0000
vt 0.4919 0.9520 0.0000
vt 0.5087 0.9539 0.0000
# 241 texture coords

o Box018
g Box018
usemtl 08___Default
s 2
f 1/1/1 2/2/2 3/3/3 4/4/4 5/5/5 6/6/6 6/6/7 7/7/8 
s 4
f 8/8/9 9/9/10 10/10/11 11/11/12 
s 8
f 12/12/13 1/1/1 7/7/8 13/13/14 14/14/15 15/15/16 
s 16
f 13/13/14 6/6/7 6/6/6 16/16/17 17/14/18 14/14/15 
s 32
f 16/16/17 5/5/5 4/4/4 18/17/19 19/15/20 17/14/18 
s 64
f 18/17/19 3/3/3 2/2/2 12/12/13 15/15/16 19/15/20 
s 8
f 14/14/15 20/18/21 21/19/22 15/15/16 
s 16
f 17/14/18 22/20/23 20/18/21 14/14/15 
s 32
f 19/15/20 23/21/24 22/20/23 17/14/18 
s 64
f 15/15/16 21/19/22 23/21/24 19/15/20 
s 8
f 20/18/21 9/9/10 8/8/9 21/19/22 
s 16
f 22/20/23 10/10/11 9/9/10 20/18/21 
s 32
f 23/21/24 11/11/12 10/10/11 22/20/23 
s 64
f 21/19/22 8/8/9 11/11/12 23/21/24 
s off
f 24/22/25 25/23/26 26/24/27 
f 27/25/28 28/26/29 29/27/30 
f 30/28/31 31/29/32 32/30/33 
f 33/31/34 34/32/35 35/33/36 
f 1/1/1 12/12/13 25/23/26 24/22/25 
f 12/12/13 2/2/2 26/24/27 25/23/26 
f 2/2/2 1/1/1 24/22/25 26/24/27 
f 7/7/8 6/6/7 28/26/29 27/25/28 
f 6/6/7 13/13/14 29/27/30 28/26/29 
f 13/13/14 7/7/8 27/25/28 29/27/30 
f 4/4/4 3/3/3 31/29/32 30/28/31 
f 3/3/3 18/17/19 32/30/33 31/29/32 
f 18/17/19 4/4/4 30/28/31 32/30/33 
f 5/5/5 16/16/17 34/32/35 33/31/34 
f 16/16/17 6/6/6 35/33/36 34/32/35 
f 6/6/6 5/5/5 33/31/34 35/33/36 
s 2
f 36/34/37 37/35/38 38/36/39 39/37/40 
s 4
f 40/38/41 41/39/42 42/40/43 43/41/44 
s 8
f 36/34/37 39/37/40 41/39/42 40/38/41 
s 16
f 44/42/45 45/43/46 46/44/47 47/45/48 
s 32
f 48/46/49 49/47/50 50/48/51 51/49/52 
s 64
f 52/50/53 53/51/54 54/52/55 55/53/56 
s 2
f 49/47/50 48/46/49 56/54/57 38/36/39 
s 4
f 57/48/58 47/45/48 46/44/47 42/40/43 
s 8
f 58/47/59 44/42/45 47/45/48 57/48/58 
s 32
f 49/47/50 59/55/60 60/56/61 50/48/51 
s 2
f 61/57/62 53/51/54 38/36/39 
s 16
f 62/58/63 56/54/57 63/59/64 64/60/65 
s 64
f 61/57/62 37/35/38 43/41/44 65/61/66 
s 2
f 62/58/63 45/43/46 38/36/39 
s 4
f 64/60/65 63/59/64 42/40/43 
f 41/39/42 57/48/58 42/40/43 
s 8
f 39/37/40 58/47/59 57/48/58 41/39/42 
s 32
f 59/55/60 52/50/53 55/53/56 60/56/61 
s 2
f 59/55/60 49/47/50 38/36/39 
s 4
f 60/56/61 55/53/56 54/52/55 42/40/43 
s 2
f 37/35/38 61/57/62 38/36/39 
s 4
f 42/40/43 65/61/66 43/41/44 
s 16
f 45/43/46 62/58/63 64/60/65 46/44/47 
s 4
f 46/44/47 64/60/65 42/40/43 
s 64
f 37/35/38 36/34/37 40/38/41 43/41/44 
s 2
f 45/43/46 44/42/45 58/47/59 38/36/39 
f 38/36/39 58/47/59 39/37/40 
s 64
f 53/51/54 61/57/62 65/61/66 54/52/55 
s 2
f 56/54/57 62/58/63 38/36/39 
f 53/51/54 52/50/53 59/55/60 38/36/39 
s 4
f 50/48/51 60/56/61 42/40/43 
s 16
f 56/54/57 48/46/49 51/49/52 63/59/64 
s 4
f 63/59/64 51/49/52 50/48/51 42/40/43 
f 54/52/55 65/61/66 42/40/43 
s 2
f 66/62/67 67/63/68 68/64/69 69/65/70 
s 4
f 70/66/71 71/67/72 72/68/73 73/69/74 
s 8
f 66/62/67 69/65/70 71/67/72 70/66/71 
s 16
f 74/70/75 75/71/76 76/72/77 77/73/78 
s 32
f 78/74/79 79/75/80 80/76/81 81/77/82 
s 64
f 82/78/83 83/79/84 84/80/85 85/81/86 
s 2
f 79/75/80 78/74/79 86/82/87 68/64/69 
s 4
f 87/83/88 77/73/78 76/72/77 72/68/73 
s 8
f 88/84/89 74/70/75 77/73/78 87/83/88 
s 32
f 79/75/80 89/85/90 90/86/91 80/76/81 
s 2
f 91/87/92 83/79/84 68/64/69 
s 16
f 92/88/93 86/82/87 93/89/94 94/90/95 
s 64
f 91/87/92 67/63/68 73/69/74 95/91/96 
s 2
f 92/88/93 75/71/76 68/64/69 
s 4
f 94/90/95 93/89/94 72/68/73 
f 71/67/72 87/83/88 72/68/73 
s 8
f 69/65/70 88/84/89 87/83/88 71/67/72 
s 32
f 89/85/90 82/78/83 85/81/86 90/86/91 
s 2
f 89/85/90 79/75/80 68/64/69 
s 4
f 90/86/91 85/81/86 84/80/85 72/68/73 
s 2
f 67/63/68 91/87/92 68/64/69 
s 4
f 72/68/73 95/91/96 73/69/74 
s 16
f 75/71/76 92/88/93 94/90/95 76/72/77 
s 4
f 76/72/77 94/90/95 72/68/73 
s 64
f 67/63/68 66/62/67 70/66/71 73/69/74 
s 2
f 75/71/76 74/70/75 88/84/89 68/64/69 
f 68/64/69 88/84/89 69/65/70 
s 64
f 83/79/84 91/87/92 95/91/96 84/80/85 
s 2
f 86/82/87 92/88/93 68/64/69 
f 83/79/84 82/78/83 89/85/90 68/64/69 
s 4
f 80/76/81 90/86/91 72/68/73 
s 16
f 86/82/87 78/74/79 81/77/82 93/89/94 
s 4
f 93/89/94 81/77/82 80/76/81 72/68/73 
f 84/80/85 95/91/96 72/68/73 
s 2
f 96/92/97 97/93/98 98/94/99 99/95/100 
s 4
f 100/96/101 101/97/102 102/98/103 103/99/104 
s 8
f 96/92/97 99/95/100 101/97/102 100/96/101 
s 16
f 104/100/105 105/101/106 106/102/107 107/103/108 
s 32
f 108/104/109 109/105/110 110/106/111 111/107/112 
s 64
f 112/108/113 113/109/114 114/110/115 115/111/116 
s 2
f 109/105/110 108/104/109 116/112/117 98/94/99 
s 4
f 117/113/118 107/103/108 106/102/107 102/98/103 
s 8
f 118/114/119 104/100/105 107/103/108 117/113/118 
s 32
f 109/105/110 119/115/120 120/116/121 110/106/111 
s 2
f 121/117/122 113/109/114 98/94/99 
s 16
f 122/118/123 116/112/117 123/119/124 124/120/125 
s 64
f 121/117/122 97/93/98 103/99/104 125/121/126 
s 2
f 122/118/123 105/101/106 98/94/99 
s 4
f 124/120/125 123/119/124 102/98/103 
f 101/97/102 117/113/118 102/98/103 
s 8
f 99/95/100 118/114/119 117/113/118 101/97/102 
s 32
f 119/115/120 112/108/113 115/111/116 120/116/121 
s 2
f 119/115/120 109/105/110 98/94/99 
s 4
f 120/116/121 115/111/116 114/110/115 102/98/103 
s 2
f 97/93/98 121/117/122 98/94/99 
s 4
f 102/98/103 125/121/126 103/99/104 
s 16
f 105/101/106 122/118/123 124/120/125 106/102/107 
s 4
f 106/102/107 124/120/125 102/98/103 
s 64
f 97/93/98 96/92/97 100/96/101 103/99/104 
s 2
f 105/101/106 104/100/105 118/114/119 98/94/99 
f 98/94/99 118/114/119 99/95/100 
s 64
f 113/109/114 121/117/122 125/121/126 114/110/115 
s 2
f 116/112/117 122/118/123 98/94/99 
f 113/109/114 112/108/113 119/115/120 98/94/99 
s 4
f 110/106/111 120/116/121 102/98/103 
s 16
f 116/112/117 108/104/109 111/107/112 123/119/124 
s 4
f 123/119/124 111/107/112 110/106/111 102/98/103 
f 114/110/115 125/121/126 102/98/103 
s 2
f 126/122/127 127/123/128 128/124/129 129/125/130 
s 4
f 130/126/131 131/127/132 132/128/133 133/129/134 
s 8
f 126/122/127 129/125/130 131/127/132 130/126/131 
s 16
f 134/130/135 135/131/136 136/132/137 137/133/138 
s 32
f 138/134/139 139/135/140 140/136/141 141/137/142 
s 64
f 142/138/143 143/139/144 144/140/145 145/141/146 
s 2
f 139/135/140 138/134/139 146/142/147 128/124/129 
s 4
f 147/143/148 137/133/138 136/132/137 132/128/133 
s 8
f 148/144/149 134/130/135 137/133/138 147/143/148 
s 32
f 139/135/140 149/145/150 150/146/151 140/136/141 
s 2
f 151/147/152 143/139/144 128/124/129 
s 16
f 152/148/153 146/142/147 153/149/154 154/150/155 
s 64
f 151/147/152 127/123/128 133/129/134 155/151/156 
s 2
f 152/148/153 135/131/136 128/124/129 
s 4
f 154/150/155 153/149/154 132/128/133 
f 131/127/132 147/143/148 132/128/133 
s 8
f 129/125/130 148/144/149 147/143/148 131/127/132 
s 32
f 149/145/150 142/138/143 145/141/146 150/146/151 
s 2
f 149/145/150 139/135/140 128/124/129 
s 4
f 150/146/151 145/141/146 144/140/145 132/128/133 
s 2
f 127/123/128 151/147/152 128/124/129 
s 4
f 132/128/133 155/151/156 133/129/134 
s 16
f 135/131/136 152/148/153 154/150/155 136/132/137 
s 4
f 136/132/137 154/150/155 132/128/133 
s 64
f 127/123/128 126/122/127 130/126/131 133/129/134 
s 2
f 135/131/136 134/130/135 148/144/149 128/124/129 
f 128/124/129 148/144/149 129/125/130 
s 64
f 143/139/144 151/147/152 155/151/156 144/140/145 
s 2
f 146/142/147 152/148/153 128/124/129 
f 143/139/144 142/138/143 149/145/150 128/124/129 
s 4
f 140/136/141 150/146/151 132/128/133 
s 16
f 146/142/147 138/134/139 141/137/142 153/149/154 
s 4
f 153/149/154 141/137/142 140/136/141 132/128/133 
f 144/140/145 155/151/156 132/128/133 
s 2
f 156/152/157 157/153/158 158/154/159 159/155/160 
s 4
f 160/156/161 161/157/162 162/158/163 163/159/164 
s 8
f 156/152/157 159/155/160 161/157/162 160/156/161 
s 16
f 164/160/165 165/161/166 166/162/167 167/163/168 
s 32
f 168/164/169 169/165/170 170/166/171 171/167/172 
s 64
f 172/168/173 173/169/174 174/170/175 175/171/176 
s 2
f 169/165/170 168/164/169 176/172/177 158/154/159 
s 4
f 177/173/178 167/163/168 166/162/167 162/158/163 
s 8
f 178/174/179 164/160/165 167/163/168 177/173/178 
s 32
f 169/165/170 179/175/180 180/176/181 170/166/171 
s 2
f 181/177/182 173/169/174 158/154/159 
s 16
f 182/178/183 176/172/177 183/179/184 184/180/185 
s 64
f 181/177/182 157/153/158 163/159/164 185/181/186 
s 2
f 182/178/183 165/161/166 158/154/159 
s 4
f 184/180/185 183/179/184 162/158/163 
f 161/157/162 177/173/178 162/158/163 
s 8
f 159/155/160 178/174/179 177/173/178 161/157/162 
s 32
f 179/175/180 172/168/173 175/171/176 180/176/181 
s 2
f 179/175/180 169/165/170 158/154/159 
s 4
f 180/176/181 175/171/176 174/170/175 162/158/163 
s 2
f 157/153/158 181/177/182 158/154/159 
s 4
f 162/158/163 185/181/186 163/159/164 
s 16
f 165/161/166 182/178/183 184/180/185 166/162/167 
s 4
f 166/162/167 184/180/185 162/158/163 
s 64
f 157/153/158 156/152/157 160/156/161 163/159/164 
s 2
f 165/161/166 164/160/165 178/174/179 158/154/159 
f 158/154/159 178/174/179 159/155/160 
s 64
f 173/169/174 181/177/182 185/181/186 174/170/175 
s 2
f 176/172/177 182/178/183 158/154/159 
f 173/169/174 172/168/173 179/175/180 158/154/159 
s 4
f 170/166/171 180/176/181 162/158/163 
s 16
f 176/172/177 168/164/169 171/167/172 183/179/184 
s 4
f 183/179/184 171/167/172 170/166/171 162/158/163 
f 174/170/175 185/181/186 162/158/163 
s 2
f 186/182/187 187/183/188 188/184/189 189/185/190 
s 4
f 190/186/191 191/187/192 192/188/193 193/189/194 
s 8
f 186/182/187 189/185/190 191/187/192 190/186/191 
s 16
f 194/190/195 195/191/196 196/192/197 197/193/198 
s 32
f 198/194/199 199/195/200 200/196/201 201/197/202 
s 64
f 202/198/203 203/199/204 204/200/205 205/201/206 
s 2
f 199/195/200 198/194/199 206/202/207 188/184/189 
s 4
f 207/203/208 197/193/198 196/192/197 192/188/193 
s 8
f 208/204/209 194/190/195 197/193/198 207/203/208 
s 32
f 199/195/200 209/205/210 210/206/211 200/196/201 
s 2
f 211/207/212 203/199/204 188/184/189 
s 16
f 212/208/213 206/202/207 213/209/214 214/210/215 
s 64
f 211/207/212 187/183/188 193/189/194 215/211/216 
s 2
f 212/208/213 195/191/196 188/184/189 
s 4
f 214/210/215 213/209/214 192/188/193 
f 191/187/192 207/203/208 192/188/193 
s 8
f 189/185/190 208/204/209 207/203/208 191/187/192 
s 32
f 209/205/210 202/198/203 205/201/206 210/206/211 
s 2
f 209/205/210 199/195/200 188/184/189 
s 4
f 210/206/211 205/201/206 204/200/205 192/188/193 
s 2
f 187/183/188 211/207/212 188/184/189 
s 4
f 192/188/193 215/211/216 193/189/194 
s 16
f 195/191/196 212/208/213 214/210/215 196/192/197 
s 4
f 196/192/197 214/210/215 192/188/193 
s 64
f 187/183/188 186/182/187 190/186/191 193/189/194 
s 2
f 195/191/196 194/190/195 208/204/209 188/184/189 
f 188/184/189 208/204/209 189/185/190 
s 64
f 203/199/204 211/207/212 215/211/216 204/200/205 
s 2
f 206/202/207 212/208/213 188/184/189 
f 203/199/204 202/198/203 209/205/210 188/184/189 
s 4
f 200/196/201 210/206/211 192/188/193 
s 16
f 206/202/207 198/194/199 201/197/202 213/209/214 
s 4
f 213/209/214 201/197/202 200/196/201 192/188/193 
f 204/200/205 215/211/216 192/188/193 
s 2
f 216/212/217 217/213/218 218/214/219 219/215/220 
s 4
f 220/216/221 221/217/222 222/218/223 223/219/224 
s 8
f 216/212/217 219/215/220 221/217/222 220/216/221 
s 16
f 224/220/225 225/221/226 226/222/227 227/223/228 
s 32
f 228/224/229 229/225/230 230/226/231 231/227/232 
s 64
f 232/228/233 233/229/234 234/230/235 235/231/236 
s 2
f 229/225/230 228/224/229 236/232/237 218/214/219 
s 4
f 237/233/238 227/223/228 226/222/227 222/218/223 
s 8
f 238/234/239 224/220/225 227/223/228 237/233/238 
s 32
f 229/225/230 239/235/240 240/236/241 230/226/231 
s 2
f 241/237/242 233/229/234 218/214/219 
s 16
f 242/238/243 236/232/237 243/239/244 244/240/245 
s 64
f 241/237/242 217/213/218 223/219/224 245/241/246 
s 2
f 242/238/243 225/221/226 218/214/219 
s 4
f 244/240/245 243/239/244 222/218/223 
f 221/217/222 237/233/238 222/218/223 
s 8
f 219/215/220 238/234/239 237/233/238 221/217/222 
s 32
f 239/235/240 232/228/233 235/231/236 240/236/241 
s 2
f 239/235/240 229/225/230 218/214/219 
s 4
f 240/236/241 235/231/236 234/230/235 222/218/223 
s 2
f 217/213/218 241/237/242 218/214/219 
s 4
f 222/218/223 245/241/246 223/219/224 
s 16
f 225/221/226 242/238/243 244/240/245 226/222/227 
s 4
f 226/222/227 244/240/245 222/218/223 
s 64
f 217/213/218 216/212/217 220/216/221 223/219/224 
s 2
f 225/221/226 224/220/225 238/234/239 218/214/219 
f 218/214/219 238/234/239 219/215/220 
s 64
f 233/229/234 241/237/242 245/241/246 234/230/235 
s 2
f 236/232/237 242/238/243 218/214/219 
f 233/229/234 232/228/233 239/235/240 218/214/219 
s 4
f 230/226/231 240/236/241 222/218/223 
s 16
f 236/232/237 228/224/229 231/227/232 243/239/244 
s 4
f 243/239/244 231/227/232 230/226/231 222/218/223 
f 234/230/235 245/241/246 222/218/223 
# 180 polygons - 88 triangles

